{ "spider": "https://ghproxy.com/https://raw.githubusercontent.com/FongMi/CatVodSpider/main/jar/custom_spider.jar;md5;ba4abbb214c642e38dd0e284fd0e54fe",
  "sites": [ {
      "key": "AList",
      "name": "AList",
      "type": 3,
      "api": "csp_AList",
      "searchable": 1,
      "filterable": 1,
      "ext": "9T$https://drive.9t.ee#木偶$https://www.kugutsu.ml"
    },
    {
      "key": "泥巴",
      "name": "泥巴",
      "type": 3,
      "api": "csp_Nbys",
      "searchable": 1,
      "filterable": 1
    },
    {
      "key": "玩偶",
      "name": "玩偶",
      "type": 3,
      "api": "csp_Doll",
      "searchable": 1,
      "filterable": 1
    },
    {
      "key": "18AV",
      "name": "18AV",
      "type": 3,
      "api": "csp_Eighteen",
      "searchable": 1,
      "filterable": 1
    },
    {
      "key": "Jable",
      "name": "Jable",
      "type": 3,
      "api": "csp_Jable",
      "searchable": 1,
      "filterable": 1
    },
    {
      "key": "PigAV",
      "name": "PigAV",
      "type": 3,
      "api": "csp_Pig",
      "searchable": 1,
      "filterable": 1
    },
    {
      "key": "MissAV",
      "name": "MissAV",
      "type": 3,
      "api": "csp_Miss",
      "searchable": 1,
      "filterable": 1
    },
    {
      "key": "Supjav",
      "name": "Supjav",
      "type": 3,
      "api": "csp_Supjav",
      "searchable": 1,
      "filterable": 1
    },
    {
      "key": "Hanime",
      "name": "Hanime",
      "type": 3,
      "api": "csp_Hanime",
      "searchable": 1,
      "filterable": 1
    },
    {
      "key": "dr_18av",
      "name": "18av(道长)",
      "type": 1,
      "api": "http://drpy.fuqizhishi.com/vod?rule=18av&ext=txt/js/18/18av.js",
      "searchable": 2,
      "quickSearch": 0,
      "filterable": 0
    },
    {
      "key": "dr_banan",
      "name": "banan(道长)",
      "type": 1,
      "api": "http://drpy.fuqizhishi.com/vod?rule=banan&ext=txt/js/18/banan.js",
      "searchable": 2,
      "quickSearch": 0,
      "filterable": 0
    },
    {
      "key": "dr_Missav",
      "name": "Missav(道长)",
      "type": 1,
      "api": "http://drpy.fuqizhishi.com/vod?rule=Missav&ext=txt/js/18/Missav.js",
      "searchable": 2,
      "quickSearch": 0,
      "filterable": 0
    },
    {
      "key": "dr_猫了个咪",
      "name": "☯️猫咪(T1)",
      "type": 1,
      "api": "http://3.39.157.140:53795/vod?rule=猫了个咪",
      "searchable": 0,
      "quickSearch": 0,
      "filterable": 0
    },
    {
      "key": "dr_养端",
      "name": "养端(道长)",
      "type": 1,
      "api": "http://drpy.fuqizhishi.com/vod?rule=养端&ext=txt/js/18/养端.js",
      "searchable": 2,
      "quickSearch": 0,
      "filterable": 0
    },
    {
      "key": "dr_吸瓜",
      "name": "吸瓜(道长)",
      "type": 1,
      "api": "http://drpy.fuqizhishi.com/vod?rule=吸瓜&ext=txt/js/18/吸瓜.js",
      "searchable": 2,
      "quickSearch": 0,
      "filterable": 0
    },
    {
      "key": "dr_朱古力",
      "name": "朱古力(道长)",
      "type": 1,
      "api": "http://drpy.fuqizhishi.com/vod?rule=朱古力&ext=txt/js/18/朱古力.js",
      "searchable": 2,
      "quickSearch": 0,
      "filterable": 0
    },
    {
      "key": "dr_玩偶姐姐",
      "name": "玩偶姐姐(道长)",
      "type": 1,
      "api": "http://drpy.fuqizhishi.com/vod?rule=玩偶姐姐&ext=txt/js/18/玩偶姐姐.js",
      "searchable": 2,
      "quickSearch": 0,
      "filterable": 0
    },
    {
      "key": "AList",
      "name": "AList",
      "type": 3,
      "api": "csp_Alist",
      "searchable": 1,
      "filterable": 1,
      "ext": "9T$https://drive.9t.ee#木偶$https://www.kugutsu.ml"
    },
     {
      "key": "madouse.la",
      "name": "成人01",
      "type": 1,
      "api": "http://madouse.la/api.php/provide/vod/",
      "searchable": 1,
      "filterable": 1
    },
    {
      "key": "51smt4.xyz",
      "name": "成人02",
      "type": 1,
      "api": "http://51smt4.xyz/api.php/provide/vod/",
      "searchable": 1,
      "filterable": 1
    },
    {
      "key": "ggmmzy.com",
      "name": "成人03",
      "type": 0,
      "api": "http://www.ggmmzy.com:9999/inc/xml",
      "searchable": 1,
      "filterable": 1
    },
    {
      "key": "bttcj.com",
      "name": "成人04",
      "type": 0,
      "api": "http://bttcj.com/inc/sapi.php",
      "searchable": 1,
      "filterable": 1
    },
    {
      "key": "cjmygzy.com",
      "name": "成人05",
      "type": 0,
      "api": "http://cjmygzy.com/inc/sapi.php?ac=videolist",
      "searchable": 1,
      "filterable": 1
    },
    {
      "key": "jcspcj8.com",
      "name": "成人06",
      "type": 0,
      "api": "http://jcspcj8.com/api?ac=videolist",
      "searchable": 1,
      "filterable": 1
    },
    {
      "key": "wmcj8.com",
      "name": "成人07",
      "type": 0,
      "api": "http://wmcj8.com/inc/sapi.php",
      "searchable": 1,
      "filterable": 1
    },
    {
      "key": "secj8.com",
      "name": "成人08",
      "type": 0,
      "api": "http://secj8.com/inc/sapi.php?ac=videolist",
      "searchable": 1,
      "filterable": 1
    },
    {
      "key": "dadiapi.com",
      "name": "成人09",
      "type": 0,
      "api": "http://dadiapi.com/api.php",
      "searchable": 1,
      "filterable": 1
    },
    {
      "key": "api.kudian70.com",
      "name": "成人10",
      "type": 1,
      "api": "http://api.kudian70.com/api.php/provide/vod/",
      "searchable": 1,
      "filterable": 1
    },
    {
      "key": "apilj.com",
      "name": "成人11",
      "type": 1,
      "api": "http://apilj.com/api.php/provide/vod/at/json/",
      "searchable": 1,
      "filterable": 1
    },
    {
      "key": "zmcj88.com",
      "name": "成人12",
      "type": 0,
      "api": "http://zmcj88.com/sapi?ac=videolist",
      "searchable": 1,
      "filterable": 1
    },
    {
      "key": "api.putaozy.net",
      "name": "成人13",
      "type": 1,
      "api": "http://api.putaozy.net/inc/apijson_vod.php",
      "searchable": 1,
      "filterable": 1
    },
    {
      "key": "mygzycj.com",
      "name": "成人14",
      "type": 0,
      "api": "http://mygzycj.com/api.php?ac=list",
      "searchable": 1,
      "filterable": 1
    },
    {
      "key": "llzxcj.com",
      "name": "成人15",
      "type": 0,
      "api": "http://llzxcj.com/inc/sck.php?ac=videolist",
      "searchable": 1,
      "filterable": 1
    },
    {
      "key": "99zywcj.com",
      "name": "成人16",
      "type": 0,
      "api": "http://99zywcj.com/inc/sapi.php?ac=videolist",
      "searchable": 1,
      "filterable": 1
    },
    {
      "key": "jializyzapi.com",
      "name": "成人17",
      "type": 1,
      "api": "http://www.jializyzapi.com/api.php/provide/vod/",
      "searchable": 1,
      "filterable": 1
    },
    {
      "key": "f2dcj6.com",
      "name": "成人18",
      "type": 0,
      "api": "http://f2dcj6.com/sapi?ac=videolist",
      "searchable": 1,
      "filterable": 1
    },
    {
      "key": "91md.me",
      "name": "成人19",
      "type": 1,
      "api": "http://91md.me/api.php/provide/vod/",
      "searchable": 1,
      "filterable": 1
    },
    {
      "key": "sdszyapi.com",
      "name": "成人20",
      "type": 0,
      "api": "http://sdszyapi.com/home/cjapi/asbb/mc10/vod/xml",
      "searchable": 1,
      "filterable": 1
    },
    {
      "key": "010aizy.com",
      "name": "成人21",
      "type": 0,
      "api": "http://www.010aizy.com/API/macs.php",
      "searchable": 1,
      "filterable": 1
    },
    {
      "key": "feifei67.com",
      "name": "成人22",
      "type": 1,
      "api": "http://www.feifei67.com/api.php/provide/vod/",
      "searchable": 1,
      "filterable": 1
    },
    {
      "key": "api.kdapi.info",
      "name": "成人23",
      "type": 1,
      "api": "http://api.kdapi.info/api.php/provide/vod/",
      "searchable": 1,
      "filterable": 1
    },
    {
      "key": "xjjzyapi.com",
      "name": "成人24",
      "type": 0,
      "api": "http://xjjzyapi.com/home/cjapi/askl/mc10/vod/xml",
      "searchable": 1,
      "filterable": 1
    },
    {
      "key": "99zy.pw",
      "name": "成人25",
      "type": 1,
      "api": "http://99zy.pw/api.php/provide/vod/",
      "searchable": 1,
      "filterable": 1
    },
    {
      "key": "caiji25.com",
      "name": "成人26",
      "type": 0,
      "api": "http://www.caiji25.com/home/cjapi/p0as/mc10/vod/xml",
      "searchable": 1,
      "filterable": 1
    },
    {
      "key": "caiji21.com",
      "name": "成人27",
      "type": 0,
      "api": "http://www.caiji21.com/home/cjapi/klkl/mc10/vod/xml",
      "searchable": 1,
      "filterable": 1
    },
    {
      "key": "caiji26.com",
      "name": "成人28",
      "type": 0,
      "api": "http://caiji26.com/home/cjapi/p0g8/mc10/vod/xml",
      "searchable": 1,
      "filterable": 1
    },
    {
      "key": "caiji24.com",
      "name": "成人29",
      "type": 0,
      "api": "http://www.caiji24.com/home/cjapi/p0d2/mc10/vod/xml",
      "searchable": 1,
      "filterable": 1
    },
    {
      "key": "api.11bat.com",
      "name": "成人30",
      "type": 0,
      "api": "http://api.11bat.com/api.php/provide/vod/at/xml",
      "searchable": 1,
      "filterable": 1
    },
    {
      "key": "leyuzyapi.com",
      "name": "成人31",
      "type": 1,
      "api": "https://www.leyuzyapi.com/inc/apijson_vod.php",
      "searchable": 1,
      "filterable": 1
    },
    {
      "key": "api.maozyapi.com",
      "name": "成人32",
      "type": 1,
      "api": "https://api.maozyapi.com/inc/apijson_vod.php",
      "searchable": 1,
      "filterable": 1
    },
    {
      "key": "888dav.com",
      "name": "成人33",
      "type": 1,
      "api": "https://www.888dav.com/api.php/provide/vod/",
      "searchable": 1,
      "filterable": 1
    },
    {
      "key": "987caiji.com",
      "name": "成人34",
      "type": 0,
      "api": "http://www.987caiji.com/api/max.php",
      "searchable": 1,
      "filterable": 1
    },
    {
      "key": "mgzyz1.com",
      "name": "成人35",
      "type": 1,
      "api": "https://mgzyz1.com/api.php/provide/vod/",
      "searchable": 1,
      "filterable": 1
    },
    {
      "key": "gdlsp.com",
      "name": "成人36",
      "type": 0,
      "api": "https://www.gdlsp.com/api/xml.php",
      "searchable": 1,
      "filterable": 1
    },
    {
      "key": "mgav1.cc",
      "name": "成人37",
      "type": 0,
      "api": "https://www.mgav1.cc/api.php/provide/vod/at/xml",
      "searchable": 1,
      "filterable": 1
    },
    {
      "key": "api.ykapi.net",
      "name": "成人38",
      "type": 1,
      "api": "https://api.ykapi.net/api.php/provide/vod/",
      "searchable": 1,
      "filterable": 1
    },
    {
      "key": "caiji07.com",
      "name": "成人39",
      "type": 0,
      "api": "https://www.caiji07.com/home/cjapi/cfcf/mc10/vod/xml",
      "searchable": 1,
      "filterable": 1
    },
    {
      "key": "shayuapi.com",
      "name": "成人40",
      "type": 1,
      "api": "https://shayuapi.com/api.php/provide/vod/",
      "searchable": 1,
      "filterable": 1
    },
    {
      "key": "caiji02.com",
      "name": "成人41",
      "type": 0,
      "api": "https://www.caiji02.com/home/cjapi/cfas/mc10/vod/xml",
      "searchable": 1,
      "filterable": 1
    },
    {
      "key": "caiji.huakuiapi.com",
      "name": "成人42",
      "type": 1,
      "api": "https://caiji.huakuiapi.com/inc/apijson_vod.php",
      "searchable": 1,
      "filterable": 1
    },
    {
      "key": "caiji01.com",
      "name": "成人43",
      "type": 0,
      "api": "https://www.caiji01.com/home/cjapi/cfd2/mc10/vod/xml",
      "searchable": 1,
      "filterable": 1
    },
    {
      "key": "kxgav.com",
      "name": "成人44",
      "type": 0,
      "api": "https://www.kxgav.com/api/xml.php",
      "searchable": 1,
      "filterable": 1
    },
    {
      "key": "caiji08.com",
      "name": "成人45",
      "type": 0,
      "api": "https://www.caiji08.com/home/cjapi/cfkl/mc10/vod/xml",
      "searchable": 1,
      "filterable": 1
    },
    {
      "key": "msnii.com",
      "name": "成人46",
      "type": 0,
      "api": "https://www.msnii.com/api/xml.php",
      "searchable": 1,
      "filterable": 1
    },
    {
      "key": "apittzy.com",
      "name": "成人47",
      "type": 1,
      "api": "https://apittzy.com/api.php/provide/vod/",
      "searchable": 1,
      "filterable": 1
    },
    {
      "key": "caiji09.com",
      "name": "成人48",
      "type": 0,
      "api": "https://www.caiji09.com/home/cjapi/cfp0/mc10/vod/xml",
      "searchable": 1,
      "filterable": 1
    },
    {
      "key": "dmmapi.com",
      "name": "成人49",
      "type": 0,
      "api": "https://www.dmmapi.com/home/cjapi/asd2c7/mc10/vod/xml",
      "searchable": 1,
      "filterable": 1
    },
    {
      "key": "lbapi9.com",
      "name": "成人50",
      "type": 1,
      "api": "https://lbapi9.com/api.php/provide/vod/",
      "searchable": 1,
      "filterable": 1
    },
    {
      "key": "kkzy.me",
      "name": "成人51",
      "type": 1,
      "api": "https://kkzy.me/api.php/provide/vod/",
      "searchable": 1,
      "filterable": 1
    },
    {
      "key": "caiji.caomeiapi.com",
      "name": "成人52",
      "type": 1,
      "api": "https://caiji.caomeiapi.com/inc/apijson_vod.php",
      "searchable": 1,
      "filterable": 1
    },
    {
      "key": "caiji.naichaapi.com",
      "name": "成人53",
      "type": 1,
      "api": "https://caiji.naichaapi.com/inc/apijson_vod.php",
      "searchable": 1,
      "filterable": 1
    },
    {
      "key": "caiji05.com",
      "name": "成人54",
      "type": 0,
      "api": "https://www.caiji05.com/home/cjapi/cfda/mc10/vod/xml",
      "searchable": 1,
      "filterable": 1
    },
    {
      "key": "siwazyw.cc",
      "name": "成人55",
      "type": 1,
      "api": "https://siwazyw.cc/api.php/provide/vod/",
      "searchable": 1,
      "filterable": 1
    },
    {
      "key": "caiji10.com",
      "name": "成人56",
      "type": 0,
      "api": "https://www.caiji10.com/home/cjapi/cfs6/mc10/vod/xml",
      "searchable": 1,
      "filterable": 1
    },
    {
      "key": "caiji03.com",
      "name": "成人57",
      "type": 0,
      "api": "https://www.caiji03.com/home/cjapi/cfg8/mc10/vod/xml",
      "searchable": 1,
      "filterable": 1
    },
    {
      "key": "kudouzy.com",
      "name": "成人58",
      "type": 1,
      "api": "https://kudouzy.com/api.php/provide/vod/",
      "searchable": 1,
      "filterable": 1
    },
    {
      "key": "xx55zyapi.com",
      "name": "成人59",
      "type": 0,
      "api": "https://xx55zyapi.com/home/cjapi/ascf/mc10/vod/xml",
      "searchable": 1,
      "filterable": 1
    },
    {
      "key": "caiji.523zyw.com",
      "name": "成人60",
      "type": 1,
      "api": "https://caiji.523zyw.com/inc/apijson_vod.php",
      "searchable": 1,
      "filterable": 1
    },
    {
      "key": "caiji04.com",
      "name": "成人61",
      "type": 0,
      "api": "https://www.caiji04.com/home/cjapi/cfc7/mc10/vod/xml",
      "searchable": 1,
      "filterable": 1
    },
    {
      "key": "52zyapi.com",
      "name": "成人62",
      "type": 0,
      "api": "https://52zyapi.com/home/cjapi/asda/mc10/vod/xml",
      "searchable": 1,
      "filterable": 1
    },
    {
      "key": "caiji22.com",
      "name": "成人63",
      "type": 0,
      "api": "https://www.caiji22.com/home/cjapi/klp0/mc10/vod/xml",
      "searchable": 1,
      "filterable": 1
    },
    {
      "key": "afasu.com",
      "name": "成人64",
      "type": 0,
      "api": "https://www.afasu.com/api/xml.php",
      "searchable": 1,
      "filterable": 1
    },
    {
      "key": "api.xiuseapi.com",
      "name": "成人65",
      "type": 1,
      "api": "https://api.xiuseapi.com/api.php/provide/vod/",
      "searchable": 1,
      "filterable": 1
    },
    {
      "key": "xrbsp.com",
      "name": "成人66",
      "type": 0,
      "api": "https://www.xrbsp.com/api/xml.php",
      "searchable": 1,
      "filterable": 1
    },
    {
      "key": "caiji23.com",
      "name": "成人67",
      "type": 0,
      "api": "https://www.caiji23.com/home/cjapi/kls6/mc10/vod/xml",
      "searchable": 1,
      "filterable": 1
    },
    {
      "key": "jgczyapi.com",
      "name": "成人68",
      "type": 0,
      "api": "https://jgczyapi.com/home/cjapi/kld2/mc10/vod/xml",
      "searchable": 1,
      "filterable": 1
    },
    {
      "key": "api.yinwoapi.com",
      "name": "成人69",
      "type": 1,
      "api": "https://api.yinwoapi.com/api.php/provide/vod/",
      "searchable": 1,
      "filterable": 1
    },
    {
      "key": "sewozyapi.com",
      "name": "成人70",
      "type": 1,
      "api": "https://sewozyapi.com/api.php/provide/vod/",
      "searchable": 1,
      "filterable": 1
    },
    {
      "key": "api.apilyzy.com",
      "name": "成人71",
      "type": 1,
      "api": "https://api.apilyzy.com/api.php/provide/vod/",
      "searchable": 1,
      "filterable": 1
    },
    {
      "key": "cj.apiabzy.com",
      "name": "成人72",
      "type": 1,
      "api": "http://cj.apiabzy.com/api.php/provide/vod/",
      "searchable": 1,
      "filterable": 1
    },
    {
      "key": "csp_Xiangjiao",
      "name": "new香蕉",
      "type": 3,
      "api": "csp_Xiangjiao",
      "searchable": 1,
      "quickSearch": 1,
      "filterable": 1
    },
    {
      "key": "CCTV6(XYQ)",
      "name": "CCTV6(XYQ)",
      "type": 3,
      "api": "csp_XYQBiu",
      "searchable": 1,
      "quickSearch": 1,
      "filterable": 0,
      "ext": "https://gitcode.net/weixin_44448955/tvmovie/-/raw/master/tvbox/cctv6.json",
      "jar": "https://gitea.com/yuegu09/wailian/raw/branch/main/jar/XYQBiu_0826fix%20.jar"
    },
    {
      "key": "csp_XYQBiu_涩视频",
      "name": "涩视频(移动网络屏蔽）(XYQ)",
      "type": 3,
      "api": "csp_XYQBiu",
      "searchable": 1,
      "quickSearch": 1,
      "filterable": 0,
      "ext": "https://gitcode.net/weixin_44448955/tvmovie/-/raw/master/tvbox/cctv6.json",
      "jar": "https://gitcode.net/weixin_44448955/tvmovie/-/raw/master/tvbox/jar/XYQBiu.jar"
    },
    {
      "key": "csp_XYQBiu_zhibo",
      "name": "涩播(XYQ)",
      "type": 3,
      "api": "csp_XYQBiu",
      "searchable": 1,
      "quickSearch": 1,
      "filterable": 0,
      "ext": "https://gitcode.net/weixin_44448955/tvmovie/-/raw/master/tvbox/zhibo_xyq_.json",
      "jar": "https://gitcode.net/weixin_44448955/tvmovie/-/raw/master/tvbox/jar/XYQBiu.jar"
    },
    {
      "key": "csp_XYQBiu_A_V123",
      "name": "A_V123(XYQ)",
      "type": 3,
      "api": "csp_XYQBiu",
      "searchable": 1,
      "quickSearch": 1,
      "filterable": 0,
      "ext": "https://gitcode.net/weixin_44448955/tvmovie/-/raw/master/tvbox/A_V123xyq.json",
      "jar": "https://gitcode.net/weixin_44448955/tvmovie/-/raw/master/tvbox/jar/XYQBiu.jar"
    },
    {
      "key": "csp_xpath_biditdcl",
      "name": "☆哔滴(磁力)",
      "type": 3,
      "api": "csp_XPath",
      "searchable": 1,
      "quickSearch": 1,
      "filterable": 1,
      "ext": "https://gitlab.com/yuzuonan/remex/-/raw/master/XP/%E5%93%94%E6%BB%B4%E7%A3%81%E5%8A%9B.json"
    },
    {
      "key": "csp_xpath_Grab4K",
      "name": "☆Grab4K(磁力)",
      "type": 3,
      "api": "csp_XPathFilter",
      "searchable": 1,
      "quickSearch": 1,
      "filterable": 1,
      "ext": "https://gitlab.com/yuzuonan/remex/-/raw/master/XP/Grab4K%E7%A3%81%E5%8A%9B.json"
    },
    {
      "key": "ysgcl",
      "name": "☆音丝范(XP磁力)",
      "type": 3,
      "api": "csp_XPath",
      "searchable": 1,
      "quickSearch": 1,
      "filterable": 1,
      "ext": "https://gitlab.com/yuzuonan/remex/-/raw/master/XP/%E9%9F%B3%E4%B8%9D%E8%8C%83%E7%A3%81%E5%8A%9B.json"
    },
    {
      "key": "csp_xpath_cilisou",
      "name": "☆磁搜(磁力)",
      "type": 3,
      "api": "csp_XPath",
      "searchable": 1,
      "quickSearch": 1,
      "filterable": 0,
      "ext": "https://gitlab.com/yuzuonan/remex/-/raw/master/XP/%E7%A3%81%E5%8A%9B%E6%90%9C.json"
    },
    {
      "key": "csp_xpath_ttkan",
      "name": "☆天天看(磁力)",
      "type": 3,
      "api": "csp_XPath",
      "searchable": 1,
      "quickSearch": 1,
      "filterable": 1,
      "ext": "https://gitlab.com/yuzuonan/remex/-/raw/master/XP/%E5%A4%A9%E5%A4%A9%E7%9C%8B%E7%A3%81%E5%8A%9B.json"
    },
    {
      "key": "csp_xpath_1024cl",
      "name": "☆1024(磁力)",
      "type": 3,
      "api": "csp_XPath",
      "searchable": 1,
      "quickSearch": 1,
      "filterable": 1,
      "ext": "https://gitlab.com/yuzuonan/remex/-/raw/master/XP/1024%E7%A3%81%E5%8A%9B.json"
    },
    {
      "key": "ASMR",
      "name": "🈲ASMR(优)",
      "type": 1,
      "api": "http://www.asmr19.in/api.php/provide/vod/",
      "searchable": 1,
      "quickSearch": 1
    },
    {
      "key": "csp_biubiu_爱看影院",
      "name": "爱看影院(XB)",
      "type": 3,
      "api": "csp_XBiubiu",
      "searchable": 1,
      "quickSearch": 1,
      "filterable": 1,
      "ext": "https://gitea.com/houxian/json/raw/branch/master/XBAdult/爱看影院.json"
    },
    {
      "key": "csp_Banana",
      "name": "Banana",
      "type": 3,
      "api": "csp_Banana",
      "searchable": 1,
      "quickSearch": 1,
      "filterable": 1,
      "ext": "https://gitea.com/houxian/json/raw/branch/master/ext/Xiangjiao.txt"
    },
    {
      "key": "csp_biubiu_GAOAA",
      "name": "GAOAA(XB)",
      "type": 3,
      "api": "csp_XBiubiu",
      "searchable": 1,
      "quickSearch": 1,
      "filterable": 1,
      "ext": "https://gitea.com/houxian/json/raw/branch/master/XBAdult/GAOAA.json"
    },
    {
      "key": "*皇冠资源",
      "name": "*皇冠资源🈲",
      "type": 1,
      "api": "https://hghhh.com/api.php/provide/vod/",
      "searchable": 1,
      "quickSearch": 1
    },
    {
      "key": "*丝袜资源",
      "name": "*丝袜资源",
      "type": 1,
      "api": "https://siwazyw.cc/api.php/provide/vod/?ac=list",
      "searchable": 0,
      "quickSearch": 0
    },
    {
      "key": "*爱播资源",
      "name": "*爱播资源",
      "type": 1,
      "api": "https://cj.apiabzy.com/api.php/provide/vod/?ac=list",
      "searchable": 0,
      "quickSearch": 0
    },
    {
      "key": "*酷豆资源",
      "name": "*酷豆资源",
      "type": 1,
      "api": "https://kudouzy.com/api.php/provide/vod/?ac=list",
      "searchable": 0,
      "quickSearch": 0
    },
    {
      "key": "*芒果资源",
      "name": "*芒果资源",
      "type": 1,
      "api": "https://mgzyz1.com/api.php/provide/vod/?ac=list",
      "searchable": 0,
      "quickSearch": 0
    },
    {
      "key": "*色窝资源",
      "name": "*色窝资源",
      "type": 1,
      "api": "https://sewozyapi.com/api.php/provide/vod/?ac=list",
      "searchable": 0,
      "quickSearch": 0
    },
    {
      "key": "*淫窝资源",
      "name": "*淫窝资源",
      "type": 1,
      "api": "https://api.yinwoapi.com/api.php/provide/vod/?ac=list",
      "searchable": 0,
      "quickSearch": 0
    },
    {
      "key": "*佳丽资源",
      "name": "*佳丽资源",
      "type": 1,
      "api": "https://jializyzapi.com/api.php/provide/vod/?ac=list",
      "searchable": 0,
      "quickSearch": 0
    },
    {
      "key": "*老鸭资源",
      "name": "*老鸭资源",
      "type": 1,
      "api": "https://api.apilyzy.com/api.php/provide/vod/",
      "searchable": 0,
      "quickSearch": 0
    },
    {
      "key": "*秀色资源",
      "name": "*秀色资源",
      "type": 1,
      "api": "https://api.xiuseapi.com/api.php/provide/vod/",
      "searchable": 0,
      "quickSearch": 0
    },
    {
      "key": "*探探资源",
      "name": "*探探资源",
      "type": 1,
      "api": "https://apittzy.com/api.php/provide/vod/",
      "searchable": 0,
      "quickSearch": 0
    },
    {
      "key": "*99资源",
      "name": "*99资源",
      "type": 1,
      "api": "http://99zy.pw/api.php/provide/vod/",
      "searchable": 0,
      "quickSearch": 0
    },
    {
      "key": "*麻豆视频",
      "name": "*麻豆视频2",
      "type": 1,
      "api": "https://madouse.la/api.php/provide/vod/",
      "searchable": 0,
      "quickSearch": 0
    },
    {
      "key": "*91麻豆",
      "name": "*91麻豆",
      "type": 1,
      "api": "https://91md.me/api.php/provide/vod/",
      "searchable": 0,
      "quickSearch": 0
    },
    {
      "key": "*CK资源",
      "name": "*CK资源",
      "type": 1,
      "api": "http://www.feifei67.com/api.php/provide/vod/",
      "searchable": 0,
      "quickSearch": 0
    },
    {
      "key": "*花椒资源",
      "name": "*花椒资源",
      "type": 1,
      "api": "https://apihjzy.com/api.php/provide/vod/",
      "searchable": 0,
      "quickSearch": 0
    },
    {
      "key": "*辣椒资源",
      "name": "*辣椒资源",
      "type": 1,
      "api": "https://apilj.com/api.php/provide/vod/at/json/",
      "searchable": 0,
      "quickSearch": 0
    },
    {
      "key": "*乐播资源",
      "name": "*乐播资源",
      "type": 1,
      "api": "https://lbapi9.com/api.php/provide/vod/",
      "searchable": 0,
      "quickSearch": 0
    },
    {
      "key": "*鲨鱼资源",
      "name": "*鲨鱼资源",
      "type": 1,
      "api": "https://shayuapi.com/api.php/provide/vod/",
      "searchable": 0,
      "quickSearch": 0
    },
    {
      "key": "*番号资源",
      "name": "*番号资源",
      "type": 1,
      "api": "http://fhapi9.com/api.php/provide/vod/",
      "searchable": 0,
      "quickSearch": 0
    },
    {
      "key": "*色猫资源",
      "name": "*色猫资源",
      "type": 0,
      "api": "https://api.maozyapi.com/inc/apijson_vod.php",
      "searchable": 0,
      "quickSearch": 0
    },
    {
      "key": "*葡萄资源",
      "name": "*葡萄资源",
      "type": 0,
      "api": "https://api.putaozy.net/inc/apijson_vod.php",
      "searchable": 0,
      "quickSearch": 0
    },
    {
      "key": "*花魁资源",
      "name": "*花魁资源",
      "type": 0,
      "api": "https://caiji.huakuiapi.com/inc/apijson_vod.php",
      "searchable": 0,
      "quickSearch": 0
    },
    {
      "key": "*博天堂",
      "name": "*博天堂",
      "type": 0,
      "api": "http://bttcj.com/inc/sapi.php?ac=videolist",
      "searchable": 0,
      "quickSearch": 0
    },
    {
      "key": "*环亚资源",
      "name": "*环亚资源",
      "type": 0,
      "api": "http://wmcj8.com/inc/sapi.php?ac=videolist",
      "searchable": 0,
      "quickSearch": 0
    },
    {
      "key": "*JAV名优馆",
      "name": "*JAV名优馆",
      "type": 0,
      "api": "http://mygzycj.com/api.php?ac=videolist",
      "searchable": 0,
      "quickSearch": 0
    },
    {
      "key": "*523资源",
      "name": "*523资源",
      "type": 0,
      "api": "https://caiji.523zyw.com/inc/apijson_vod.php",
      "searchable": 0,
      "quickSearch": 0
    },
    {
      "key": "*乐鱼资源",
      "name": "*乐鱼资源",
      "type": 0,
      "api": "https://www.leyuzyapi.com/inc/apijson_vod.php",
      "searchable": 0,
      "quickSearch": 0
    },
    {
      "key": "*草莓资源",
      "name": "*草莓资源",
      "type": 0,
      "api": "https://caiji.caomeiapi.com/inc/apijson_vod.php",
      "searchable": 0,
      "quickSearch": 0
    },
    {
      "key": "*奶茶资源",
      "name": "*奶茶资源",
      "type": 0,
      "api": "https://caiji.naichaapi.com/inc/apijson_vod.php",
      "searchable": 0,
      "quickSearch": 0
    },
    {
      "key": "*美少女资源",
      "name": "*美少女资源",
      "type": 0,
      "api": "https://www.msnii.com/api/xml.php",
      "searchable": 0,
      "quickSearch": 0
    },
    {
      "key": "*淫水机资源",
      "name": "*淫水机资源",
      "type": 0,
      "api": "https://www.xrbsp.com/api/xml.php",
      "searchable": 0,
      "quickSearch": 0
    },
    {
      "key": "*香奶儿资源",
      "name": "*香奶儿资源",
      "type": 0,
      "api": "https://www.gdlsp.com/api/xml.php",
      "searchable": 0,
      "quickSearch": 0
    },
    {
      "key": "*白嫖资源",
      "name": "*白嫖资源",
      "type": 0,
      "api": "https://www.kxgav.com/api/xml.php",
      "searchable": 0,
      "quickSearch": 0
    },
    {
      "key": "*小湿妹资源",
      "name": "*小湿妹资源",
      "type": 0,
      "api": "https://www.afasu.com/api/xml.php",
      "searchable": 0,
      "quickSearch": 0
    },
    {
      "key": "*黄AV资源站",
      "name": "*黄AV资源站",
      "type": 0,
      "api": "https://www.pgxdy.com/api/xml.php",
      "searchable": 0,
      "quickSearch": 0
    },
    {
      "key": "*大地资源",
      "name": "*大地资源",
      "type": 0,
      "api": "https://dadiapi.com/api.php",
      "searchable": 0,
      "quickSearch": 0
    },
    {
      "key": "*色色资源",
      "name": "*色色资源",
      "type": 0,
      "api": "http://secj8.com/inc/sapi.php?ac=videolist",
      "searchable": 0,
      "quickSearch": 0
    },
    {
      "key": "*玖玖资源",
      "name": "*玖玖资源",
      "type": 0,
      "api": "http://99zywcj.com/inc/sapi.php?ac=videolist",
      "searchable": 0,
      "quickSearch": 0
    },
    {
      "key": "*狼少年",
      "name": "*狼少年",
      "type": 0,
      "api": "http://cjmygzy.com/inc/sapi.php?ac=videolist",
      "searchable": 0,
      "quickSearch": 0
    },
    {
      "key": "*富二代资源",
      "name": "*富二代资源",
      "type": 0,
      "api": "http://f2dcj6.com/sapi?ac=videolist",
      "searchable": 0,
      "quickSearch": 0
    },
    {
      "key": "*字幕网",
      "name": "*字幕网",
      "type": 0,
      "api": "http://zmcj88.com/sapi?ac=videolist",
      "searchable": 0,
      "quickSearch": 0
    },
    {
      "key": "*久草资源",
      "name": "*久草资源",
      "type": 0,
      "api": "http://jcspcj8.com/api?ac=videolist",
      "searchable": 0,
      "quickSearch": 0
    },
    {
      "key": "*利来资源",
      "name": "*利来资源",
      "type": 0,
      "api": "http://llzxcj.com/inc/sck.php?ac=videolist",
      "searchable": 0,
      "quickSearch": 0
    },
    {
      "key": "*爱看资源",
      "name": "*爱看资源",
      "type": 1,
      "api": "http://www.aikanzyz9.com/inc/apijson_vod.php",
      "searchable": 0,
      "quickSearch": 0
    },
    {
      "key": "*色屌丝资源",
      "name": "*色屌丝资源",
      "type": 0,
      "api": "http://sdszyapi.com/home/cjapi/asbb/mc10/vod/xml",
      "searchable": 0,
      "quickSearch": 0
    },
    {
      "key": "*小姐姐资源",
      "name": "*小姐姐资源",
      "type": 0,
      "api": "https://xjjzyapi.com/home/cjapi/askl/mc10/vod/xml",
      "searchable": 0,
      "quickSearch": 0
    },
    {
      "key": "*52AVAV",
      "name": "*52AVAV",
      "type": 0,
      "api": "https://52zyapi.com/home/cjapi/asda/mc10/vod/xml",
      "searchable": 0,
      "quickSearch": 0
    },
    {
      "key": "*我要啪啪",
      "name": "*我要啪啪",
      "type": 0,
      "api": "http://www.caiji21.com/home/cjapi/klkl/mc10/vod/xml",
      "searchable": 0,
      "quickSearch": 0
    },
    {
      "key": "*AV集中淫",
      "name": "*AV集中淫",
      "type": 0,
      "api": "https://www.caiji22.com/home/cjapi/klp0/mc10/vod/xml",
      "searchable": 0,
      "quickSearch": 0
    },
    {
      "key": "*夜夜撸资源",
      "name": "*夜夜撸资源",
      "type": 0,
      "api": "https://www.caiji23.com/home/cjapi/kls6/mc10/vod/xml",
      "searchable": 0,
      "quickSearch": 0
    },
    {
      "key": "*大屌丝资源",
      "name": "*大屌丝资源",
      "type": 0,
      "api": "http://www.caiji24.com/home/cjapi/p0d2/mc10/vod/xml",
      "searchable": 0,
      "quickSearch": 0
    },
    {
      "key": "*咪咪资源",
      "name": "*咪咪资源",
      "type": 0,
      "api": "http://www.caiji25.com/home/cjapi/p0as/mc10/vod/xml",
      "searchable": 0,
      "quickSearch": 0
    },
    {
      "key": "*鲍鱼AV",
      "name": "*鲍鱼AV",
      "type": 0,
      "api": "http://caiji26.com/home/cjapi/p0g8/mc10/vod/xml",
      "searchable": 0,
      "quickSearch": 0
    },
    {
      "key": "*精工厂资源",
      "name": "*精工厂资源",
      "type": 0,
      "api": "https://jgczyapi.com/home/cjapi/kld2/mc10/vod/xml",
      "searchable": 0,
      "quickSearch": 0
    },
    {
      "key": "*点点娱乐",
      "name": "*点点娱乐",
      "type": 0,
      "api": "https://xx55zyapi.com/home/cjapi/ascf/mc10/vod/xml",
      "searchable": 0,
      "quickSearch": 0
    },
    {
      "key": "*大MM资源",
      "name": "*大MM资源",
      "type": 0,
      "api": "https://www.dmmapi.com/home/cjapi/asd2c7/mc10/vod/xml",
      "searchable": 0,
      "quickSearch": 0
    },
    {
      "key": "*黄瓜TV资源",
      "name": "*黄瓜TV资源",
      "type": 0,
      "api": "https://www.caiji10.com/home/cjapi/cfs6/mc10/vod/xml",
      "searchable": 0,
      "quickSearch": 0
    },
    {
      "key": "*快播盒子资源",
      "name": "*快播盒子资源",
      "type": 0,
      "api": "https://www.caiji09.com/home/cjapi/cfp0/mc10/vod/xml",
      "searchable": 0,
      "quickSearch": 0
    },
    {
      "key": "*大香蕉资源",
      "name": "*大香蕉资源",
      "type": 0,
      "api": "https://www.caiji08.com/home/cjapi/cfkl/mc10/vod/xml",
      "searchable": 0,
      "quickSearch": 0
    },
    {
      "key": "*日本AV在线",
      "name": "*日本AV在线",
      "type": 0,
      "api": "https://www.caiji07.com/home/cjapi/cfcf/mc10/vod/xml",
      "searchable": 0,
      "quickSearch": 0
    },
    {
      "key": "*久久热在线",
      "name": "*久久热在线",
      "type": 0,
      "api": "https://www.caiji06.com/home/cjapi/cfbb/mc10/vod/xml",
      "searchable": 0,
      "quickSearch": 0
    },
    {
      "key": "*青青草视频",
      "name": "*青青草视频",
      "type": 0,
      "api": "https://www.caiji05.com/home/cjapi/cfda/mc10/vod/xml",
      "searchable": 0,
      "quickSearch": 0
    },
    {
      "key": "*一本道资源",
      "name": "*一本道资源",
      "type": 0,
      "api": "https://www.caiji03.com/home/cjapi/cfg8/mc10/vod/xml",
      "searchable": 0,
      "quickSearch": 0
    },
    {
      "key": "*草榴视频",
      "name": "*草榴视频",
      "type": 0,
      "api": "https://www.caiji02.com/home/cjapi/cfas/mc10/vod/xml",
      "searchable": 0,
      "quickSearch": 0
    },
    {
      "key": "*亚洲成人在线",
      "name": "*亚洲成人在线",
      "type": 0,
      "api": "https://www.caiji01.com/home/cjapi/cfd2/mc10/vod/xml",
      "searchable": 0,
      "quickSearch": 0
    },
    {
      "key": "*010爱资源",
      "name": "*010爱资源",
      "type": 0,
      "api": "http://www.010aizy.com/API/macs.php",
      "searchable": 0,
      "quickSearch": 0
    },
    {
      "key": "*抖阴视频",
      "name": "*抖阴视频",
      "type": 1,
      "api": "https://www.888dav.com/api.php/provide/vod/",
      "searchable": 0,
      "quickSearch": 0
    },
    {
      "key": "*酷伦理",
      "name": "*酷伦理",
      "type": 0,
      "api": "https://api.kudian70.com/api.php/provide/vod/",
      "searchable": 0,
      "quickSearch": 0
    },
    {
      "key": "*影库资源",
      "name": "*影库资源",
      "type": 0,
      "api": "https://api.ykapi.net/api.php/provide/vod/from/ykm3u8/",
      "searchable": 0,
      "quickSearch": 0
    },
    {
      "key": "*速度资源",
      "name": "*速度资源",
      "type": 0,
      "api": "http://www.ggmmzy.com:9999/inc/xml",
      "searchable": 0,
      "quickSearch": 0
    },
    {
      "key": "*KK写真资源",
      "name": "*KK写真资源",
      "type": 0,
      "api": "https://kkzy.me/api.php/provide/vod/",
      "searchable": 0,
      "quickSearch": 0
    },
    {
      "key": "*金鹰资源",
      "name": "*金鹰资源",
      "type": 0,
      "api": "http://jinyingzy.com/provide/vod/",
      "searchable": 0,
      "quickSearch": 0
    },
    {
      "key": "*易看资源",
      "name": "*易看资源",
      "type": 0,
      "api": "https://api.yikanapi.com/api.php/provide/vod/",
      "searchable": 0,
      "quickSearch": 0
    },
    {
      "key": "Alist",
      "name": "Alist",
      "type": 3,
      "api": "csp_Alist",
      "searchable": 1,
      "quickSearch": 1,
      "filterable": 1,
      "ext": "https://ju990c.i996.me/TS/Alist.json"
    },
    {
      "key": "*SB资源",
      "name": "*SB资源",
      "type": 0,
      "api": "http://www.shabizy.com:777/inc/sea",
      "searchable": 0,
      "quickSearch": 0
    },
    {
      "key": "*水帘洞资源",
      "name": "*水帘洞资源",
      "type": 1,
      "api": "https://www.sldcaiji.com/home/cjapi/s6da/mc10/vod/json",
      "searchable": 0,
      "quickSearch": 0
    },
    {
      "key": "*淫人妻资源",
      "name": "*淫人妻资源",
      "type": 1,
      "api": "http://www.yrqcaiji.com/home/cjapi/s6c7/mc10/vod/json",
      "searchable": 0,
      "quickSearch": 0
    },
    {
      "key": "*小处女资源",
      "name": "*小处女资源",
      "type": 1,
      "api": "http://xcncaiji.com/home/cjapi/s6bb/mc10/vod/json",
      "searchable": 0,
      "quickSearch": 0
    },
    {
      "key": "*麻豆视频",
      "name": "*麻豆视频",
      "type": 0,
      "api": "https://www.caiji04.com/home/cjapi/cfc7/mc10/vod/xml",
      "searchable": 0,
      "quickSearch": 0
    },
    {
      "key": "*天噜啦资源",
      "name": "*天噜啦资源",
      "type": 0,
      "api": "http://www.987caiji.com/api/max.php",
      "searchable": 0,
      "quickSearch": 0
    },
    {
      "key": "*99资源",
      "name": "*99资源",
      "type": 1,
      "api": "http://99zy.pw/api.php/provide/vod/",
      "searchable": 0,
      "quickSearch": 0
    },
    {
      "key": "*99资源吧",
      "name": "*99资源吧",
      "type": 1,
      "api": "http://99zyba.com/api.php/provide/vod/",
      "searchable": 0,
      "quickSearch": 0
    },
    {
      "key": "*酷豆2",
      "name": "*酷豆2",
      "type": 1,
      "api": "https://api.kdapi.info/api.php/provide/vod/",
      "searchable": 0,
      "quickSearch": 0
    },
    {
      "key": "*美少女资源",
      "name": "*美少女资源",
      "type": 0,
      "api": "https://www.msnii.com/api/xml.php",
      "searchable": 0,
      "quickSearch": 0
    },
    {
      "key": "*淫水机资源",
      "name": "*淫水机资源",
      "type": 0,
      "api": "https://www.xrbsp.com/api/xml.php",
      "searchable": 0,
      "quickSearch": 0
    },
    {
      "key": "*香奶儿资源",
      "name": "*香奶儿资源",
      "type": 0,
      "api": "https://www.gdlsp.com/api/xml.php",
      "searchable": 0,
      "quickSearch": 0
    },
    {
      "key": "*白嫖资源",
      "name": "*白嫖资源",
      "type": 0,
      "api": "https://www.kxgav.com/api/xml.php",
      "searchable": 0,
      "quickSearch": 0
    },
    {
      "key": "*小湿妹资源",
      "name": "*小湿妹资源",
      "type": 0,
      "api": "https://www.afasu.com/api/xml.php",
      "searchable": 0,
      "quickSearch": 0
    },
    {
      "key": "*大地资源",
      "name": "*大地资源",
      "type": 0,
      "api": "https://dadiapi.com/api.php",
      "searchable": 0,
      "quickSearch": 0
    },
    {
      "key": "*CK资源",
      "name": "*CK资源",
      "type": 1,
      "api": "http://www.feifei67.com/api.php/provide/vod/",
      "searchable": 0,
      "quickSearch": 0
    },
    {
      "key": "*老鸭资源",
      "name": "*老鸭资源",
      "type": 1,
      "api": "https://api.apilyzy.com/api.php/provide/vod/",
      "searchable": 0,
      "quickSearch": 0
    },
    {
      "key": "*花椒资源",
      "name": "*花椒资源",
      "type": 1,
      "api": "https://apihjzy.com/api.php/provide/vod/",
      "searchable": 0,
      "quickSearch": 0
    },
    {
      "key": "*乐播资源",
      "name": "*乐播资源",
      "type": 1,
      "api": "https://lbapi9.com/api.php/provide/vod/",
      "searchable": 0,
      "quickSearch": 0
    },
    {
      "key": "*博天堂",
      "name": "*博天堂",
      "type": 0,
      "api": "http://bttcj.com/inc/sapi.php",
      "searchable": 0,
      "quickSearch": 0
    },
    {
      "key": "*环亚资源",
      "name": "*环亚资源",
      "type": 0,
      "api": "http://wmcj8.com/inc/sapi.php",
      "searchable": 0,
      "quickSearch": 0
    },
    {
      "key": "*AVZY6888资源",
      "name": "*AVZY6888资源",
      "type": 1,
      "api": "http://m.7777688.com/inc/apijson.php",
      "searchable": 0,
      "quickSearch": 0
    },
    {
      "key": "*色色资源",
      "name": "*色色资源",
      "type": 0,
      "api": "http://secj8.com/inc/sapi.php?ac=videolist",
      "searchable": 0,
      "quickSearch": 0
    },
    {
      "key": "*玖玖资源",
      "name": "*玖玖资源",
      "type": 0,
      "api": "http://99zywcj.com/inc/sapi.php?ac=videolist",
      "searchable": 0,
      "quickSearch": 0
    },
    {
      "key": "*狼少年",
      "name": "*狼少年",
      "type": 0,
      "api": "http://cjmygzy.com/inc/sapi.php?ac=videolist",
      "searchable": 0,
      "quickSearch": 0
    },
    {
      "key": "*佳丽资源",
      "name": "*佳丽资源",
      "type": 1,
      "api": "http://www.jializyzapi.com/api.php/provide/vod/",
      "searchable": 0,
      "quickSearch": 0
    },
    {
      "key": "*番号资源",
      "name": "*番号资源",
      "type": 1,
      "api": "http://fhapi9.com/api.php/provide/vod/",
      "searchable": 0,
      "quickSearch": 0
    },
    {
      "key": "*鲨鱼资源",
      "name": "*鲨鱼资源",
      "type": 1,
      "api": "https://shayuapi.com/api.php/provide/vod/",
      "searchable": 0,
      "quickSearch": 0
    },
    {
      "key": "*速度资源",
      "name": "*速度资源",
      "type": 0,
      "api": "http://www.ggmmzy.com:9999/inc/xml",
      "searchable": 0,
      "quickSearch": 0
    },
    {
      "key": "zp098",
      "name": "老鸭资源",
      "type": 0,
      "api": "http://laoyazy.vip/api.php/provide/vod/at/xml",
      "searchable": 1,
      "quickSearch": 1,
      "filterable": 0
    },
    {
      "key": "*AIvin",
      "name": "*AIvin",
      "type": 0,
      "api": "http://lbapiby.com/api.php/provide/vod/at/xml"
    },
    {
      "key": "鲨鱼",
      "name": "鲨鱼(切)",
      "type": 1,
      "api": "https://shayuapi.com/api.php/provide/vod",
      "searchable": 1,
      "quickSearch": 1
    },
    {
      "key": "乐播",
      "name": "乐播(切)",
      "type": 1,
      "api": "https://lbapi9.com/api.php/provide/vod",
      "searchable": 1,
      "quickSearch": 1
    },
    {
      "key": "丝袜资源",
      "name": "丝袜资源(切)",
      "type": 1,
      "api": "https://siwazyw.cc/api.php/provide/vod",
      "searchable": 1,
      "quickSearch": 1
    },
    {
      "key": "秀色资源",
      "name": "秀色资源(切)",
      "type": 1,
      "api": "https://api.xiuseapi.com/api.php/provide/vod/",
      "searchable": 1,
      "quickSearch": 1
    },
    {
      "key": "探探资源",
      "name": "探探资源(切)",
      "type": 1,
      "api": "https://apittzy.com/api.php/provide/vod",
      "searchable": 1,
      "quickSearch": 1
    },
    {
      "key": "色窝资源",
      "name": "色窝资源(切)",
      "type": 1,
      "api": "https://sewozyapi.com/api.php/provide/vod/",
      "searchable": 1,
      "quickSearch": 1
    },
    {
      "key": "淫窝资源",
      "name": "淫窝资源(切)",
      "type": 1,
      "api": "https://api.yinwoapi.com/api.php/provide/vod/",
      "searchable": 1,
      "quickSearch": 1
    },
    {
      "key": "色屌丝资源",
      "name": "色屌丝资源(切)",
      "type": 0,
      "api": "http://sdszyapi.com/home/cjapi/asbb/mc10/vod/xml",
      "searchable": 1,
      "quickSearch": 1
    },
    {
      "key": "小姐姐资源",
      "name": "小姐姐资源(切)",
      "type": 0,
      "api": "https://xjjzyapi.com/home/cjapi/askl/mc10/vod/xml",
      "searchable": 1,
      "quickSearch": 1
    },
    {
      "key": "52AV",
      "name": "52AV(切)",
      "type": 0,
      "api": "https://52zyapi.com/home/cjapi/asda/mc10/vod/xml",
      "searchable": 1,
      "quickSearch": 1
    },
    {
      "key": "我要啪啪",
      "name": "我要啪啪(切)",
      "type": 0,
      "api": "http://www.caiji21.com/home/cjapi/klkl/mc10/vod/xml",
      "searchable": 1,
      "quickSearch": 1
    },
    {
      "key": "AV集中淫",
      "name": "AV集中淫(切)",
      "type": 0,
      "api": "https://www.caiji22.com/home/cjapi/klp0/mc10/vod/xml",
      "searchable": 1,
      "quickSearch": 1
    },
    {
      "key": "夜夜撸资源",
      "name": "夜夜撸资源(切)",
      "type": 0,
      "api": "https://www.caiji23.com/home/cjapi/kls6/mc10/vod/xml",
      "searchable": 1,
      "quickSearch": 1
    },
    {
      "key": "咪咪资源",
      "name": "咪咪资源(切)",
      "type": 0,
      "api": "http://www.caiji25.com/home/cjapi/p0as/mc10/vod/xml",
      "searchable": 1,
      "quickSearch": 1
    },
    {
      "key": "鲍鱼AV",
      "name": "鲍鱼AV(切)",
      "type": 0,
      "api": "http://caiji26.com/home/cjapi/p0g8/mc10/vod/xml",
      "searchable": 1,
      "quickSearch": 1
    },
    {
      "key": "精工厂资源",
      "name": "精工厂资源(切)",
      "type": 0,
      "api": "https://jgczyapi.com/home/cjapi/kld2/mc10/vod/xml",
      "searchable": 1,
      "quickSearch": 1
    },
    {
      "key": "点点娱乐",
      "name": "点点娱乐(切)",
      "type": 0,
      "api": "https://xx55zyapi.com/home/cjapi/ascf/mc10/vod/xml",
      "searchable": 1,
      "quickSearch": 1
    },
    {
      "key": "淫人妻资源",
      "name": "淫人妻资源(切)",
      "type": 0,
      "api": "http://www.yrqcaiji.com/home/cjapi/s6c7/mc10/vod/xml",
      "searchable": 1,
      "quickSearch": 1
    },
    {
      "key": "小处女资源",
      "name": "小处女资源(切)",
      "type": 0,
      "api": "http://xcncaiji.com/home/cjapi/s6bb/mc10/vod/xml",
      "searchable": 1,
      "quickSearch": 1
    },
    {
      "key": "大MM资源",
      "name": "大MM资源(切)",
      "type": 0,
      "api": "https://www.dmmapi.com/home/cjapi/asd2c7/mc10/vod/xml",
      "searchable": 1,
      "quickSearch": 1
    },
    {
      "key": "黄瓜TV资源",
      "name": "黄瓜TV资源(切)",
      "type": 0,
      "api": "https://www.caiji10.com/home/cjapi/cfs6/mc10/vod/xml",
      "searchable": 1,
      "quickSearch": 1
    },
    {
      "key": "快播盒子资源",
      "name": "快播盒子资源(切)",
      "type": 0,
      "api": "https://www.caiji09.com/home/cjapi/cfp0/mc10/vod/xml",
      "searchable": 1,
      "quickSearch": 1
    },
    {
      "key": "大香蕉资源",
      "name": "大香蕉资源(切)",
      "type": 0,
      "api": "https://www.caiji08.com/home/cjapi/cfkl/mc10/vod/xml",
      "searchable": 1,
      "quickSearch": 1
    },
    {
      "key": "日本AV在线",
      "name": "日本AV在线(切)",
      "type": 0,
      "api": "https://www.caiji07.com/home/cjapi/cfcf/mc10/vod/xml",
      "searchable": 1,
      "quickSearch": 1
    },
    {
      "key": "久久热在线",
      "name": "久久热在线(切)",
      "type": 0,
      "api": "https://www.caiji06.com/home/cjapi/cfbb/mc10/vod/xml",
      "searchable": 1,
      "quickSearch": 1
    },
    {
      "key": "青青草视频",
      "name": "青青草视频(切)",
      "type": 0,
      "api": "https://www.caiji05.com/home/cjapi/cfda/mc10/vod/xml",
      "searchable": 1,
      "quickSearch": 1
    },
    {
      "key": "麻豆视频",
      "name": "麻豆视频(切)",
      "type": 0,
      "api": "https://www.caiji04.com/home/cjapi/cfc7/mc10/vod/xml",
      "searchable": 1,
      "quickSearch": 1
    },
    {
      "key": "麻豆视频2",
      "name": "麻豆视频2(切)",
      "type": 1,
      "api": "https://madouse.la/api.php/provide/vod/at/json",
      "searchable": 1,
      "quickSearch": 1
    },
    {
      "key": "一本道资源",
      "name": "一本道资源(切)",
      "type": 0,
      "api": "https://www.caiji03.com/home/cjapi/cfg8/mc10/vod/xml/",
      "searchable": 1,
      "quickSearch": 1
    },
    {
      "key": "草榴视频",
      "name": "草榴视频(切)",
      "type": 0,
      "api": "https://www.caiji02.com/home/cjapi/cfas/mc10/vod/xml/",
      "searchable": 1,
      "quickSearch": 1
    },
    {
      "key": "亚洲成人在线",
      "name": "亚洲成人在线(切)",
      "type": 0,
      "api": "https://www.caiji01.com/home/cjapi/cfd2/mc10/vod/xml/",
      "searchable": 1,
      "quickSearch": 1
    },
    {
      "key": "99资源",
      "name": "99资源(切)",
      "type": 1,
      "api": "http://99zy.pw/api.php/provide/vod/at/json/",
      "searchable": 1,
      "quickSearch": 1
    },
    {
      "key": "老鸭资源",
      "name": "老鸭资源(切)",
      "type": 1,
      "api": "https://api.apilyzy.com/api.php/provide/vod/at/json/",
      "searchable": 1,
      "quickSearch": 1
    },
    {
      "key": "花椒资源",
      "name": "花椒资源(切)",
      "type": 1,
      "api": "https://apihjzy.com/api.php/provide/vod/at/json/",
      "searchable": 1,
      "quickSearch": 1
    },
    {
      "key": "KK写真资源",
      "name": "KK写真资源(切)",
      "type": 1,
      "api": "https://kkzy.me/api.php/provide/vod/at/json/",
      "searchable": 1,
      "quickSearch": 1
    },
    {
      "key": "91麻豆",
      "name": "91麻豆(切)",
      "type": 1,
      "api": "https://91md.me/api.php/provide/vod/at/json",
      "searchable": 1,
      "quickSearch": 1
    },
    {
      "key": "速播资源",
      "name": "速播资源(切)",
      "type": 1,
      "api": "https://api.suboapi.com/api.php/provide/vod/at/json",
      "searchable": 1,
      "quickSearch": 1
    },
    {
      "key": "酷豆资源",
      "name": "酷豆资源(切)",
      "type": 1,
      "api": "https://kudouzy.com/api.php/provide/vod/at/json",
      "searchable": 1,
      "quickSearch": 1
    },
    {
      "key": "酷豆2",
      "name": "酷豆2(切)",
      "type": 1,
      "api": "https://api.kdapi.info/api.php/provide/vod/at/json",
      "searchable": 1,
      "quickSearch": 1
    },
    {
      "key": "酷伦理",
      "name": "酷伦理(切)",
      "type": 1,
      "api": "https://api.kudian70.com/api.php/provide/vod/at/json",
      "searchable": 1,
      "quickSearch": 1
    },
    {
      "key": "影库资源",
      "name": "影库资源(切)",
      "type": 1,
      "api": "https://api.ykapi.net/api.php/provide/vod/at/json",
      "searchable": 1,
      "quickSearch": 1
    },
    {
      "key": "万影色",
      "name": "万影色(切)",
      "type": 1,
      "api": "https://wanying4.com/api.php/provide/vod/at/json",
      "searchable": 1,
      "quickSearch": 1
    },
    {
      "key": "爱播资源",
      "name": "爱播资源(切)",
      "type": 1,
      "api": "https://cj.apiabzy.com/api.php/provide/vod/at/json",
      "searchable": 1,
      "quickSearch": 1
    },
    {
      "key": "乐鱼资源",
      "name": "乐鱼资源(切)",
      "type": 1,
      "api": "https://www.leyuzyapi.com/inc/apijson_vod.php",
      "searchable": 1,
      "quickSearch": 1
    },
    {
      "key": "色猫资源",
      "name": "色猫资源(切)",
      "type": 1,
      "api": "https://api.maozyapi.com/inc/apijson_vod.php",
      "searchable": 1,
      "quickSearch": 1
    },
    {
      "key": "花魁资源",
      "name": "花魁资源(切)",
      "type": 1,
      "api": "https://caiji.huakuiapi.com/inc/apijson_vod.php",
      "searchable": 1,
      "quickSearch": 1
    },
    {
      "key": "葡萄资源",
      "name": "葡萄资源(切)",
      "type": 1,
      "api": "https://caiji.putaozy.net/inc/apijson_vod.php",
      "searchable": 1,
      "quickSearch": 1
    },
    {
      "key": "博天堂",
      "name": "博天堂(切)",
      "type": 0,
      "api": "http://bttcj.com/inc/sapi.php",
      "searchable": 1,
      "quickSearch": 1
    },
    {
      "key": "wmcj8",
      "name": "wmcj8(切)",
      "type": 0,
      "api": "http://wmcj8.com/inc/sapi.php",
      "searchable": 1,
      "quickSearch": 1
    },
    {
      "key": "天噜啦资源",
      "name": "天噜啦资源(切)",
      "type": 0,
      "api": "http://www.987caiji.com/api/max.php",
      "searchable": 1,
      "quickSearch": 1
    },
    {
      "key": "环亚资源",
      "name": "环亚资源(切)",
      "type": 0,
      "api": "http://wmcj8.com/inc/sapi.php",
      "searchable": 1,
      "quickSearch": 1
    },
    {
      "key": "狼少年",
      "name": "狼少年(切)",
      "type": 0,
      "api": "http://cjmygzy.com/inc/sapi.php?ac=videolist",
      "searchable": 1,
      "quickSearch": 1
    },
    {
      "key": "色色资源",
      "name": "色色资源(切)",
      "type": 0,
      "api": "http://secj8.com/inc/sapi.php?ac=videolist",
      "searchable": 1,
      "quickSearch": 1
    },
    {
      "key": "玖玖资源",
      "name": "玖玖资源(切)",
      "type": 0,
      "api": "http://99zywcj.com/inc/sapi.php?ac=videolist",
      "searchable": 1,
      "quickSearch": 1
    },
    {
      "key": "番号资源",
      "name": "番号资源(卡切)",
      "type": 1,
      "api": "http://fhapi9.com/api.php/provide/vod/at/json",
      "searchable": 1,
      "quickSearch": 1
    },
    {
      "key": "浪潮资源",
      "name": "浪潮资源(卡切)",
      "type": 1,
      "api": "http://langchaozy6.com/api.php/provide/vod/at/json",
      "searchable": 1,
      "quickSearch": 1
    },
    {
      "key": "佳丽资源",
      "name": "佳丽资源(卡切)",
      "type": 1,
      "api": "http://www.jializyzapi.com/api.php/provide/vod/at/json",
      "searchable": 1,
      "quickSearch": 1
    },
    {
      "key": "哥哥妹妹",
      "name": "哥哥妹妹(切)",
      "type": 0,
      "api": "http://www.ggmmzy.com:9999/inc/xml",
      "searchable": 1,
      "quickSearch": 1
    },
    {
      "key": "7777688",
      "name": "7777688(切)",
      "type": 1,
      "api": "http://m.7777688.com/inc/apijson.php",
      "searchable": 1,
      "quickSearch": 1
    },
    {
      "key": "010爱资源",
      "name": "010爱资源",
      "type": 0,
      "api": "http://www.010aizy.com/API/macs.php",
      "searchable": 1,
      "quickSearch": 1
    },
    {
      "key": "奶茶资源",
      "name": "奶茶资源(切)",
      "type": 1,
      "api": "https://caiji.naichaapi.com/inc/apijson_vod.php",
      "searchable": 1,
      "quickSearch": 1
    },
    {
      "key": "草莓资源",
      "name": "草莓资源(切)",
      "type": 1,
      "api": "https://caiji.caomeiapi.com/inc/apijson_vod.php",
      "searchable": 1,
      "quickSearch": 1
    },
    {
      "key": "523资源",
      "name": "523资源(切)",
      "type": 1,
      "api": "https://caiji.523zyw.com/inc/apijson_vod.php",
      "searchable": 1,
      "quickSearch": 1
    },
    {
      "key": "爱看资源",
      "name": "爱看资源(切)",
      "type": 1,
      "api": "https://www.aikanzyz9.com/inc/apijson_vod.php",
      "searchable": 1,
      "quickSearch": 1
    },
    {
      "key": "芒果资源",
      "name": "芒果资源(切)",
      "type": 1,
      "api": "https://mgzyz1.com/api.php/provide/vod/at/json",
      "searchable": 1,
      "quickSearch": 1
    },
    {
      "key": "美少女资源",
      "name": "美少女资源(切)",
      "type": 0,
      "api": "https://www.msnii.com/api/xml.php",
      "searchable": 1,
      "quickSearch": 1
    },
    {
      "key": "淫水机资源",
      "name": "淫水机资源(切)",
      "type": 0,
      "api": "https://www.xrbsp.com/api/xml.php",
      "searchable": 1,
      "quickSearch": 1
    },
    {
      "key": "香奶儿资源",
      "name": "香奶儿资源(切)",
      "type": 0,
      "api": "https://www.gdlsp.com/api/xml.php",
      "searchable": 1,
      "quickSearch": 1
    },
    {
      "key": "白嫖资源",
      "name": "白嫖资源(切)",
      "type": 0,
      "api": "https://www.kxgav.com/api/xml.php",
      "searchable": 1,
      "quickSearch": 1
    },
    {
      "key": "小湿妹资源",
      "name": "小湿妹资源(切)",
      "type": 0,
      "api": "https://www.afasu.com/api/xml.php",
      "searchable": 1,
      "quickSearch": 1
    },
    {
      "key": "黄AV资源",
      "name": "黄AV资源(切)",
      "type": 0,
      "api": "https://www.pgxdy.com/api/xml.php",
      "searchable": 1,
      "quickSearch": 1
    },
    {
      "key": "JAV名优馆",
      "name": "JAV名优馆(切)",
      "type": 0,
      "api": "http://mygzycj.com/api.php?ac=videolist",
      "searchable": 1,
      "quickSearch": 1
    },
    {
      "key": "久草资源",
      "name": "久草资源(切)",
      "type": 0,
      "api": "http://jcspcj8.com/api?ac=videolist",
      "searchable": 1,
      "quickSearch": 1
    },
    {
      "key": "富二代资源",
      "name": "富二代资源(切)",
      "type": 0,
      "api": "http://f2dcj6.com/sapi?ac=videolist",
      "searchable": 1,
      "quickSearch": 1
    },
    {
      "key": "字幕网",
      "name": "字幕网(切)",
      "type": 0,
      "api": "http://zmcj88.com/sapi?ac=videolist",
      "searchable": 1,
      "quickSearch": 1
    },
    {
      "key": "利来资源",
      "name": "利来资源(切)",
      "type": 0,
      "api": "http://llzxcj.com/inc/sck.php?ac=videolist",
      "searchable": 1,
      "quickSearch": 1
    },
    {
      "key": "T4",
      "name": "开始观看",
      "type": 4,
      "api": "https://t4.secan.icu/vod?sites=all&ali_token=x&timeout=5",
      "searchable": 1,
      "quickSearch": 1,
      "filterable": 1
    },
    {
      "key": "精工厂",
      "name": "精工福利",
      "type": 0,
      "api": "https://jgczyapi.com/home/cjapi/kld2/mc/vod/xml",
      "searchable": 0,
      "quickSearch": 0,
      "filterable": 0,
      "jar": "https://gitea.com/zwx/itv/raw/branch/dev/jar/18.jar"
    },
    {
      "key": "91md",
      "name": "九一福利",
      "type": 1,
      "api": "https://91md.me/api.php/provide/vod/from/mdm3u8/",
      "searchable": 0,
      "quickSearch": 0,
      "filterable": 0,
      "jar": "https://gitea.com/zwx/itv/raw/branch/dev/jar/18.jar"
    },
    {
      "key": "美少女",
      "name": "少女福利",
      "type": 0,
      "api": "https://www.msnii.com/api/xml.php",
      "searchable": 0,
      "quickSearch": 0,
      "filterable": 1,
      "jar": "https://gitea.com/zwx/itv/raw/branch/dev/jar/18.jar"
    },
    {
      "key": "点点",
      "name": "点点福利",
      "type": 0,
      "api": "https://xx55zyapi.com/home/cjapi/ascf/mc/vod/xml",
      "searchable": 0,
      "quickSearch": 0,
      "filterable": 0,
      "jar": "https://gitea.com/zwx/itv/raw/branch/dev/jar/18.jar"
    },
    {
      "key": "屌丝",
      "name": "屌丝福利",
      "type": 0,
      "api": "https://sdszyapi.com/home/cjapi/asbb/sea/vod/xml",
      "searchable": 0,
      "quickSearch": 0,
      "filterable": 0,
      "jar": "https://gitea.com/zwx/itv/raw/branch/dev/jar/18.jar"
    },
    {
      "key": "哥哥妹妹",
      "name": "亲密福利",
      "type": 0,
      "api": "http://www.ggmmzy.com:9999/inc/xml",
      "searchable": 0,
      "quickSearch": 0,
      "filterable": 0,
      "jar": "https://gitea.com/zwx/itv/raw/branch/dev/jar/18.jar"
    },
    {
      "key": "*CK资源",
      "name": "超酷福利",
      "type": 1,
      "api": "http://www.feifei67.com/api.php/provide/vod/",
      "searchable": 0,
      "quickSearch": 0,
      "filterable": 0,
      "jar": "https://gitea.com/zwx/itv/raw/branch/dev/jar/18.jar"
    },
    {
      "key": "*博天堂",
      "name": "天堂福利",
      "type": 0,
      "api": "http://bttcj.com/inc/sapi.php",
      "searchable": 0,
      "quickSearch": 0,
      "filterable": 0,
      "jar": "https://gitea.com/zwx/itv/raw/branch/dev/jar/18.jar"
    },
    {
      "key": "*AIvin",
      "name": "*AIvin",
      "type": 0,
      "api": "http://lbapiby.com/api.php/provide/vod/at/xml"
    },
    {
      "key": "91md",
      "name": "91",
      "type": 1,
      "api": "https://91md.me/api.php/provide/vod/from/mdm3u8/",
      "searchable": 1,
      "quickSearch": 1,
      "filterable": 0
    },
    {
      "key": "hy",
      "name": "1️⃣（高清无码-速度慢）",
      "type": 0,
      "api": "http://wmcj8.com/inc/sapi.php",
      "searchable": 1,
      "quickSearch": 1,
      "filterable": 0
    },
    {
      "key": "sy",
      "name": "2️⃣（综合）",
      "type": 1,
      "api": "https://shayuapi.com/api.php/provide/vod/at/json/",
      "searchable": 1,
      "quickSearch": 1,
      "filterable": 0
    },
    {
      "key": "bbt",
      "name": "3️⃣（伦理剧情）",
      "type": 0,
      "api": "http://bttcj.com/inc/sapi.php",
      "searchable": 1,
      "quickSearch": 1,
      "filterable": 0
    },
    {
      "key": "lebo",
      "name": "4️⃣（综合）",
      "type": 1,
      "api": "https://lbapi9.com/api.php/provide/vod/at/json/",
      "searchable": 1,
      "quickSearch": 1,
      "filterable": 0
    },
    {
      "key": "kk",
      "name": "5️⃣（伦理剧情）",
      "type": 0,
      "api": "https://kkzy.me/api.php/provide/vod/at/xml/",
      "searchable": 1,
      "quickSearch": 1,
      "filterable": 0
    },
    {
      "key": "JL",
      "name": "6️⃣（综合）",
      "type": 0,
      "api": "https://jializyzapi.com/api.php/provide/vod/at/xml/",
      "searchable": 1,
      "quickSearch": 1,
      "filterable": 0
    },
    {
      "key": "TT",
      "name": "7️⃣（综合）",
      "type": 0,
      "api": "https://apittzy.com/api.php/provide/vod/at/xml/",
      "searchable": 1,
      "quickSearch": 1,
      "filterable": 0
    },
    {
      "key": "hj",
      "name": "8️⃣（综合）",
      "type": 0,
      "api": "https://cj.apihjzy.com/inc/api.php",
      "searchable": 1,
      "quickSearch": 1,
      "filterable": 0
    },
    {
      "key": "sm",
      "name": "9️⃣（综合）",
      "type": 1,
      "api": "https://api.maozyapi.com/inc/apijson_vod.php",
      "searchable": 1,
      "quickSearch": 1,
      "filterable": 0
    },
    {
      "key": "xiuse",
      "name": "🔟",
      "type": 1,
      "api": "https://api.xiuseapi.com/api.php/provide/vod/",
      "searchable": 1,
      "quickSearch": 1,
      "filterable": 0
    },
    {
      "key": "sw",
      "name": "1️⃣1️⃣（综合）",
      "type": 0,
      "api": "https://siwazyw.cc/api.php/provide/vod/at/xml/",
      "searchable": 1,
      "quickSearch": 1,
      "filterable": 0
    },
    {
      "key": "kd",
      "name": "1️⃣2️⃣（综合）",
      "type": 0,
      "api": "https://api.kdapi.info/api.php/provide/vod/at/xml/",
      "searchable": 1,
      "quickSearch": 1,
      "filterable": 0
    },
    {
      "key": "LY",
      "name": "1️⃣3️⃣（综合）",
      "type": 0,
      "api": "https://api.apilyzy.com/api.php/provide/vod/at/xml/",
      "searchable": 1,
      "quickSearch": 1,
      "filterable": 0
    },
    {
      "key": "LY",
      "name": "1️⃣4️⃣（猎奇）",
      "type": 0,
      "api": "http://cjmygzy.com/inc/sapi.php?ac=videolist",
      "searchable": 1,
      "quickSearch": 1,
      "filterable": 0
    },
    {
      "key": "jgc",
      "name": "1️⃣5️⃣（优质）",
      "type": 0,
      "api": "https://jgczyapi.com/home/cjapi/kld2/mc/vod/xml",
      "searchable": 1,
      "quickSearch": 1,
      "filterable": 0
    },
    {
      "key": "yk",
      "name": "1️⃣7️⃣",
      "type": 1,
      "api": "https://api.ykapi.net/api.php/provide/vod/from/ykm3u8/",
      "searchable": 1,
      "quickSearch": 1,
      "filterable": 0
    },
    {
      "key": "diand",
      "name": "1️⃣8️⃣",
      "type": 0,
      "api": "https://xx55zyapi.com/home/cjapi/ascf/mc/vod/xml",
      "searchable": 1,
      "quickSearch": 1,
      "filterable": 0
    },
    {
      "key": "dds",
      "name": "1️⃣9️⃣",
      "type": 0,
      "api": "https://sdszyapi.com/home/cjapi/asbb/sea/vod/xml",
      "searchable": 1,
      "quickSearch": 1,
      "filterable": 0
    },
    {
      "key": "ggmm",
      "name": "2️⃣0️⃣",
      "type": 0,
      "api": "http://www.ggmmzy.com:9999/inc/xml",
      "searchable": 1,
      "quickSearch": 1,
      "filterable": 0
    },
    {
      "key": "ckzy",
      "name": "2️⃣1️⃣",
      "type": 1,
      "api": "http://www.feifei67.com/api.php/provide/vod/",
      "searchable": 1,
      "quickSearch": 1,
      "filterable": 0
    },
    {
      "key": "yinwo",
      "name": "2️⃣2️⃣",
      "type": 0,
      "api": "https://api.yinwoapi.com/api.php/provide/vod/at/xml/",
      "searchable": 1,
      "quickSearch": 1,
      "filterable": 0
    },
    {
      "key": "putao",
      "name": "2️⃣3️⃣",
      "type": 0,
      "api": "https://caiji.putaozy.net/inc/api.php",
      "searchable": 1,
      "quickSearch": 1,
      "filterable": 0
    },
    {
      "key": "sewo",
      "name": "2️⃣4️⃣",
      "type": 0,
      "api": "https://sewozyapi.com/api.php/provide/vod/at/xml/",
      "searchable": 1,
      "quickSearch": 1,
      "filterable": 0
    },
    {
      "key": "msn",
      "name": "2️⃣5️⃣",
      "type": 0,
      "api": "https://www.msnii.com/api/xml.php",
      "searchable": 1,
      "quickSearch": 1,
      "filterable": 1
    },
    {
      "key": "gdl",
      "name": "2️⃣6️⃣",
      "type": 0,
      "api": "https://www.gdlsp.com/api/xml.php",
      "searchable": 1,
      "quickSearch": 1,
      "filterable": 1
    },
    {
      "key": "kxgav",
      "name": "2️⃣7️⃣",
      "type": 0,
      "api": "https://www.kxgav.com/api/xml.php",
      "searchable": 1,
      "quickSearch": 1,
      "filterable": 1
    },
    {
      "key": "afasu",
      "name": "2️⃣8️⃣",
      "type": 0,
      "api": "https://www.afasu.com/api/xml.php",
      "searchable": 1,
      "quickSearch": 1,
      "filterable": 1
    },
    {
      "key": "KpgxdyE",
      "name": "2️⃣9️⃣",
      "type": 0,
      "api": "https://www.pgxdy.com/api/xml.php",
      "searchable": 1,
      "quickSearch": 1,
      "filterable": 1
    },
    {
      "key": "xrb",
      "name": "3️⃣0️⃣",
      "type": 0,
      "api": "https://www.xrbsp.com/api/xml.php",
      "searchable": 1,
      "quickSearch": 1,
      "filterable": 1
    },
    {
      "key": "huakui",
      "name": "3️⃣1️⃣",
      "type": 1,
      "api": "https://caiji.huakuiapi.com/inc/apijson_vod.php",
      "searchable": 1,
      "quickSearch": 1,
      "filterable": 1
    },
    {
      "key": "sbzy",
      "name": "3️⃣2️⃣",
      "type": 0,
      "api": "http://www.shabizy.com:777/inc/sea",
      "searchable": 1,
      "quickSearch": 1,
      "filterable": 1
    },
    {
      "key": "xjiejie",
      "name": "3️⃣3️⃣",
      "type": 0,
      "api": "https://xjjzyapi.com/home/cjapi/askl/mc10/vod/xml",
      "searchable": 1,
      "quickSearch": 1,
      "filterable": 1
    },
    {
      "key": "tianal",
      "name": "3️⃣4️⃣",
      "type": 0,
      "api": "http://www.987caiji.com/api/max.php",
      "searchable": 1,
      "quickSearch": 1,
      "filterable": 1
    },
    {
      "key": "99zy",
      "name": "3️⃣5️⃣",
      "type": 1,
      "api": "http://99zy.pw/api.php/provide/vod/",
      "searchable": 1,
      "quickSearch": 1,
      "filterable": 1
    },
    {
      "key": "kudou",
      "name": "3️⃣6️⃣",
      "type": 1,
      "api": "https://kudouzy.com/api.php/provide/vod/",
      "searchable": 1,
      "quickSearch": 1,
      "filterable": 1
    },
    {
      "key": "kulunli",
      "name": "3️⃣7️⃣",
      "type": 1,
      "api": "https://api.kudian70.com/api.php/provide/vod/",
      "searchable": 1,
      "quickSearch": 1,
      "filterable": 1
    },
    {
      "key": "aiboz",
      "name": "3️⃣8️⃣",
      "type": 1,
      "api": "https://cj.apiabzy.com/api.php/provide/vod/",
      "searchable": 1,
      "quickSearch": 1,
      "filterable": 1
    },
    {
      "key": "a688zy",
      "name": "3️⃣9️⃣",
      "type": 1,
      "api": "http://m.7777688.com/inc/apijson.php",
      "searchable": 1,
      "quickSearch": 1,
      "filterable": 1
    },
    {
      "key": "sesez",
      "name": "4️⃣0️⃣",
      "type": 0,
      "api": "http://secj8.com/inc/sapi.php?ac=videolist",
      "searchable": 1,
      "quickSearch": 1,
      "filterable": 1
    },
    {
      "key": "99zyyy",
      "name": "4️⃣1️⃣",
      "type": 0,
      "api": "http://99zywcj.com/inc/sapi.php?ac=videolist",
      "searchable": 1,
      "quickSearch": 1,
      "filterable": 1
    },
    {
      "key": "fhzy",
      "name": "4️⃣2️⃣",
      "type": 1,
      "api": "http://fhapi9.com/api.php/provide/vod/",
      "searchable": 1,
      "quickSearch": 1,
      "filterable": 1
    },
    {
      "key": "langc",
      "name": "4️⃣3️⃣",
      "type": 1,
      "api": "http://langchaozy11.com/api.php/provide/vod/",
      "searchable": 1,
      "quickSearch": 1,
      "filterable": 1
    },
    {
      "key": "f2d",
      "name": "4️⃣4️⃣",
      "type": 0,
      "api": "http://f2dcj6.com/sapi?ac=videolist",
      "searchable": 1,
      "quickSearch": 1,
      "filterable": 1
    },
    {
      "key": "javmyg",
      "name": "4️⃣5️⃣",
      "type": 0,
      "api": "http://mygzycj.com/api.php?ac=videolist",
      "searchable": 1,
      "quickSearch": 1,
      "filterable": 1
    },
    {
      "key": "4000",
      "name": "4️⃣6️⃣",
      "type": 1,
      "api": "http://www.4000zy.com/api.php/provide/vod/",
      "searchable": 1,
      "quickSearch": 1,
      "filterable": 1
    },
    {
      "key": "smt",
      "name": "4️⃣7️⃣",
      "type": 1,
      "api": "http://51smt4.xyz/api.php/provide/vod/",
      "searchable": 1,
      "quickSearch": 1,
      "filterable": 1
    },
    {
      "key": "523",
      "name": "4️⃣8️⃣",
      "type": 1,
      "api": "https://caiji.523zyw.com/inc/apijson_vod.php",
      "searchable": 1,
      "quickSearch": 1,
      "filterable": 1
    },
    {
      "key": "mgzy",
      "name": "4️⃣9️⃣",
      "type": 1,
      "api": "https://mgzyz1.com/api.php/provide/vod/",
      "searchable": 1,
      "quickSearch": 1,
      "filterable": 1
    },
    {
      "key": "010",
      "name": "5️⃣0️⃣",
      "type": 0,
      "api": "http://www.010aizy.com/API/macs.php",
      "searchable": 1,
      "quickSearch": 1,
      "filterable": 1
    },
    {
      "key": "精工厂",
      "name": "精工厂",
      "type": 0,
      "api": "https://jgczyapi.com/home/cjapi/kld2/mc/vod/xml",
      "searchable": 1,
      "quickSearch": 1,
      "filterable": 0
    },
    {
      "key": "csp_xpath_cilisou",
      "name": "磁搜(磁力)",
      "type": 3,
      "api": "csp_XPath",
      "searchable": 1,
      "quickSearch": 1,
      "filterable": 0,
      "ext": "https://gitea.com/yuegu09/wailian/raw/branch/main/XP/磁力搜.json"
    },
    {
      "key": "csp_xpath_ttkan",
      "name": "☆天天看(磁力)",
      "type": 3,
      "api": "csp_XPath",
      "searchable": 1,
      "quickSearch": 1,
      "filterable": 1,
      "ext": "https://gitea.com/mingang/box/raw/branch/master/XP/xpc_cltt.json"
    },
    {
      "key": "csp_xpath_1024cl",
      "name": "☆1024(磁力)",
      "type": 3,
      "api": "csp_XPath",
      "searchable": 1,
      "quickSearch": 1,
      "filterable": 1,
      "ext": "https://gitea.com/mingang/box/raw/branch/master/XP/xpc_1024cls.json"
    },
    {
      "key": "鲨鱼",
      "name": "鲨鱼(切)",
      "type": 1,
      "api": "https://shayuapi.com/api.php/provide/vod",
      "searchable": 1,
      "quickSearch": 1
    },
    {
      "key": "乐播",
      "name": "乐播(切)",
      "type": 1,
      "api": "https://lbapi9.com/api.php/provide/vod",
      "searchable": 1,
      "quickSearch": 1
    },
    {
      "key": "丝袜资源",
      "name": "丝袜资源(切)",
      "type": 1,
      "api": "https://siwazyw.cc/api.php/provide/vod",
      "searchable": 1,
      "quickSearch": 1
    },
    {
      "key": "秀色资源",
      "name": "秀色资源(切)",
      "type": 1,
      "api": "https://api.xiuseapi.com/api.php/provide/vod/",
      "searchable": 1,
      "quickSearch": 1
    },
    {
      "key": "探探资源",
      "name": "探探资源(切)",
      "type": 1,
      "api": "https://apittzy.com/api.php/provide/vod",
      "searchable": 1,
      "quickSearch": 1
    },
    {
      "key": "色窝资源",
      "name": "色窝资源(切)",
      "type": 1,
      "api": "https://sewozyapi.com/api.php/provide/vod/",
      "searchable": 1,
      "quickSearch": 1
    },
    {
      "key": "淫窝资源",
      "name": "淫窝资源(切)",
      "type": 1,
      "api": "https://api.yinwoapi.com/api.php/provide/vod/",
      "searchable": 1,
      "quickSearch": 1
    },
    {
      "key": "色屌丝资源",
      "name": "色屌丝资源(切)",
      "type": 0,
      "api": "http://sdszyapi.com/home/cjapi/asbb/mc10/vod/xml",
      "searchable": 1,
      "quickSearch": 1
    },
    {
      "key": "小姐姐资源",
      "name": "小姐姐资源(切)",
      "type": 0,
      "api": "https://xjjzyapi.com/home/cjapi/askl/mc10/vod/xml",
      "searchable": 1,
      "quickSearch": 1
    },
    {
      "key": "52AV",
      "name": "52AV(切)",
      "type": 0,
      "api": "https://52zyapi.com/home/cjapi/asda/mc10/vod/xml",
      "searchable": 1,
      "quickSearch": 1
    },
    {
      "key": "我要啪啪",
      "name": "我要啪啪(切)",
      "type": 0,
      "api": "http://www.caiji21.com/home/cjapi/klkl/mc10/vod/xml",
      "searchable": 1,
      "quickSearch": 1
    },
    {
      "key": "AV集中淫",
      "name": "AV集中淫(切)",
      "type": 0,
      "api": "https://www.caiji22.com/home/cjapi/klp0/mc10/vod/xml",
      "searchable": 1,
      "quickSearch": 1
    },
    {
      "key": "夜夜撸资源",
      "name": "夜夜撸资源(切)",
      "type": 0,
      "api": "https://www.caiji23.com/home/cjapi/kls6/mc10/vod/xml",
      "searchable": 1,
      "quickSearch": 1
    },
    {
      "key": "咪咪资源",
      "name": "咪咪资源(切)",
      "type": 0,
      "api": "http://www.caiji25.com/home/cjapi/p0as/mc10/vod/xml",
      "searchable": 1,
      "quickSearch": 1
    },
    {
      "key": "鲍鱼AV",
      "name": "鲍鱼AV(切)",
      "type": 0,
      "api": "http://caiji26.com/home/cjapi/p0g8/mc10/vod/xml",
      "searchable": 1,
      "quickSearch": 1
    },
    {
      "key": "精工厂资源",
      "name": "精工厂资源(切)",
      "type": 0,
      "api": "https://jgczyapi.com/home/cjapi/kld2/mc10/vod/xml",
      "searchable": 1,
      "quickSearch": 1
    },
    {
      "key": "点点娱乐",
      "name": "点点娱乐(切)",
      "type": 0,
      "api": "https://xx55zyapi.com/home/cjapi/ascf/mc10/vod/xml",
      "searchable": 1,
      "quickSearch": 1
    },
    {
      "key": "淫人妻资源",
      "name": "淫人妻资源(切)",
      "type": 0,
      "api": "http://www.yrqcaiji.com/home/cjapi/s6c7/mc10/vod/xml",
      "searchable": 1,
      "quickSearch": 1
    },
    {
      "key": "小处女资源",
      "name": "小处女资源(切)",
      "type": 0,
      "api": "http://xcncaiji.com/home/cjapi/s6bb/mc10/vod/xml",
      "searchable": 1,
      "quickSearch": 1
    },
    {
      "key": "大MM资源",
      "name": "大MM资源(切)",
      "type": 0,
      "api": "https://www.dmmapi.com/home/cjapi/asd2c7/mc10/vod/xml",
      "searchable": 1,
      "quickSearch": 1
    },
    {
      "key": "黄瓜TV资源",
      "name": "黄瓜TV资源(切)",
      "type": 0,
      "api": "https://www.caiji10.com/home/cjapi/cfs6/mc10/vod/xml",
      "searchable": 1,
      "quickSearch": 1
    },
    {
      "key": "快播盒子资源",
      "name": "快播盒子资源(切)",
      "type": 0,
      "api": "https://www.caiji09.com/home/cjapi/cfp0/mc10/vod/xml",
      "searchable": 1,
      "quickSearch": 1
    },
    {
      "key": "大香蕉资源",
      "name": "大香蕉资源(切)",
      "type": 0,
      "api": "https://www.caiji08.com/home/cjapi/cfkl/mc10/vod/xml",
      "searchable": 1,
      "quickSearch": 1
    },
    {
      "key": "日本AV在线",
      "name": "日本AV在线(切)",
      "type": 0,
      "api": "https://www.caiji07.com/home/cjapi/cfcf/mc10/vod/xml",
      "searchable": 1,
      "quickSearch": 1
    },
    {
      "key": "久久热在线",
      "name": "久久热在线(切)",
      "type": 0,
      "api": "https://www.caiji06.com/home/cjapi/cfbb/mc10/vod/xml",
      "searchable": 1,
      "quickSearch": 1
    },
    {
      "key": "青青草视频",
      "name": "青青草视频(切)",
      "type": 0,
      "api": "https://www.caiji05.com/home/cjapi/cfda/mc10/vod/xml",
      "searchable": 1,
      "quickSearch": 1
    },
    {
      "key": "麻豆视频",
      "name": "麻豆视频(切)",
      "type": 0,
      "api": "https://www.caiji04.com/home/cjapi/cfc7/mc10/vod/xml",
      "searchable": 1,
      "quickSearch": 1
    },
    {
      "key": "麻豆视频2",
      "name": "麻豆视频2(切)",
      "type": 1,
      "api": "https://madouse.la/api.php/provide/vod/at/json",
      "searchable": 1,
      "quickSearch": 1
    },
    {
      "key": "一本道资源",
      "name": "一本道资源(切)",
      "type": 0,
      "api": "https://www.caiji03.com/home/cjapi/cfg8/mc10/vod/xml/",
      "searchable": 1,
      "quickSearch": 1
    },
    {
      "key": "草榴视频",
      "name": "草榴视频(切)",
      "type": 0,
      "api": "https://www.caiji02.com/home/cjapi/cfas/mc10/vod/xml/",
      "searchable": 1,
      "quickSearch": 1
    },
    {
      "key": "亚洲成人在线",
      "name": "亚洲成人在线(切)",
      "type": 0,
      "api": "https://www.caiji01.com/home/cjapi/cfd2/mc10/vod/xml/",
      "searchable": 1,
      "quickSearch": 1
    },
    {
      "key": "99资源",
      "name": "99资源(切)",
      "type": 1,
      "api": "http://99zy.pw/api.php/provide/vod/at/json/",
      "searchable": 1,
      "quickSearch": 1
    },
    {
      "key": "老鸭资源",
      "name": "老鸭资源(切)",
      "type": 1,
      "api": "https://api.apilyzy.com/api.php/provide/vod/at/json/",
      "searchable": 1,
      "quickSearch": 1
    },
    {
      "key": "花椒资源",
      "name": "花椒资源(切)",
      "type": 1,
      "api": "https://apihjzy.com/api.php/provide/vod/at/json/",
      "searchable": 1,
      "quickSearch": 1
    },
    {
      "key": "KK写真资源",
      "name": "KK写真资源(切)",
      "type": 1,
      "api": "https://kkzy.me/api.php/provide/vod/at/json/",
      "searchable": 1,
      "quickSearch": 1
    },
    {
      "key": "91麻豆",
      "name": "91麻豆(切)",
      "type": 1,
      "api": "https://91md.me/api.php/provide/vod/at/json",
      "searchable": 1,
      "quickSearch": 1
    },
    {
      "key": "速播资源",
      "name": "速播资源(切)",
      "type": 1,
      "api": "https://api.suboapi.com/api.php/provide/vod/at/json",
      "searchable": 1,
      "quickSearch": 1
    },
    {
      "key": "酷豆资源",
      "name": "酷豆资源(切)",
      "type": 1,
      "api": "https://kudouzy.com/api.php/provide/vod/at/json",
      "searchable": 1,
      "quickSearch": 1
    },
    {
      "key": "酷豆2",
      "name": "酷豆2(切)",
      "type": 1,
      "api": "https://api.kdapi.info/api.php/provide/vod/at/json",
      "searchable": 1,
      "quickSearch": 1
    },
    {
      "key": "酷伦理",
      "name": "酷伦理(切)",
      "type": 1,
      "api": "https://api.kudian70.com/api.php/provide/vod/at/json",
      "searchable": 1,
      "quickSearch": 1
    },
    {
      "key": "影库资源",
      "name": "影库资源(切)",
      "type": 1,
      "api": "https://api.ykapi.net/api.php/provide/vod/at/json",
      "searchable": 1,
      "quickSearch": 1
    },
    {
      "key": "万影色",
      "name": "万影色(切)",
      "type": 1,
      "api": "https://wanying4.com/api.php/provide/vod/at/json",
      "searchable": 1,
      "quickSearch": 1
    },
    {
      "key": "爱播资源",
      "name": "爱播资源(切)",
      "type": 1,
      "api": "https://cj.apiabzy.com/api.php/provide/vod/at/json",
      "searchable": 1,
      "quickSearch": 1
    },
    {
      "key": "乐鱼资源",
      "name": "乐鱼资源(切)",
      "type": 1,
      "api": "https://www.leyuzyapi.com/inc/apijson_vod.php",
      "searchable": 1,
      "quickSearch": 1
    },
    {
      "key": "色猫资源",
      "name": "色猫资源(切)",
      "type": 1,
      "api": "https://api.maozyapi.com/inc/apijson_vod.php",
      "searchable": 1,
      "quickSearch": 1
    },
    {
      "key": "花魁资源",
      "name": "花魁资源(切)",
      "type": 1,
      "api": "https://caiji.huakuiapi.com/inc/apijson_vod.php",
      "searchable": 1,
      "quickSearch": 1
    },
    {
      "key": "葡萄资源",
      "name": "葡萄资源(切)",
      "type": 1,
      "api": "https://caiji.putaozy.net/inc/apijson_vod.php",
      "searchable": 1,
      "quickSearch": 1
    },
    {
      "key": "博天堂",
      "name": "博天堂(切)",
      "type": 0,
      "api": "http://bttcj.com/inc/sapi.php",
      "searchable": 1,
      "quickSearch": 1
    },
    {
      "key": "wmcj8",
      "name": "wmcj8(切)",
      "type": 0,
      "api": "http://wmcj8.com/inc/sapi.php",
      "searchable": 1,
      "quickSearch": 1
    },
    {
      "key": "天噜啦资源",
      "name": "天噜啦资源(切)",
      "type": 0,
      "api": "http://www.987caiji.com/api/max.php",
      "searchable": 1,
      "quickSearch": 1
    },
    {
      "key": "环亚资源",
      "name": "环亚资源(切)",
      "type": 0,
      "api": "http://wmcj8.com/inc/sapi.php",
      "searchable": 1,
      "quickSearch": 1
    },
    {
      "key": "狼少年",
      "name": "狼少年(切)",
      "type": 0,
      "api": "http://cjmygzy.com/inc/sapi.php?ac=videolist",
      "searchable": 1,
      "quickSearch": 1
    },
    {
      "key": "色色资源",
      "name": "色色资源(切)",
      "type": 0,
      "api": "http://secj8.com/inc/sapi.php?ac=videolist",
      "searchable": 1,
      "quickSearch": 1
    },
    {
      "key": "玖玖资源",
      "name": "玖玖资源(切)",
      "type": 0,
      "api": "http://99zywcj.com/inc/sapi.php?ac=videolist",
      "searchable": 1,
      "quickSearch": 1
    },
    {
      "key": "番号资源",
      "name": "番号资源(卡切)",
      "type": 1,
      "api": "http://fhapi9.com/api.php/provide/vod/at/json",
      "searchable": 1,
      "quickSearch": 1
    },
    {
      "key": "浪潮资源",
      "name": "浪潮资源(卡切)",
      "type": 1,
      "api": "http://langchaozy6.com/api.php/provide/vod/at/json",
      "searchable": 1,
      "quickSearch": 1
    },
    {
      "key": "佳丽资源",
      "name": "佳丽资源(卡切)",
      "type": 1,
      "api": "http://www.jializyzapi.com/api.php/provide/vod/at/json",
      "searchable": 1,
      "quickSearch": 1
    },
    {
      "key": "哥哥妹妹",
      "name": "哥哥妹妹(切)",
      "type": 0,
      "api": "http://www.ggmmzy.com:9999/inc/xml",
      "searchable": 1,
      "quickSearch": 1
    },
    {
      "key": "7777688",
      "name": "7777688(切)",
      "type": 1,
      "api": "http://m.7777688.com/inc/apijson.php",
      "searchable": 1,
      "quickSearch": 1
    },
    {
      "key": "010爱资源",
      "name": "010爱资源",
      "type": 0,
      "api": "http://www.010aizy.com/API/macs.php",
      "searchable": 1,
      "quickSearch": 1
    },
    {
      "key": "奶茶资源",
      "name": "奶茶资源(切)",
      "type": 1,
      "api": "https://caiji.naichaapi.com/inc/apijson_vod.php",
      "searchable": 1,
      "quickSearch": 1
    },
    {
      "key": "草莓资源",
      "name": "草莓资源(切)",
      "type": 1,
      "api": "https://caiji.caomeiapi.com/inc/apijson_vod.php",
      "searchable": 1,
      "quickSearch": 1
    },
    {
      "key": "523资源",
      "name": "523资源(切)",
      "type": 1,
      "api": "https://caiji.523zyw.com/inc/apijson_vod.php",
      "searchable": 1,
      "quickSearch": 1
    },
    {
      "key": "爱看资源",
      "name": "爱看资源(切)",
      "type": 1,
      "api": "https://www.aikanzyz9.com/inc/apijson_vod.php",
      "searchable": 1,
      "quickSearch": 1
    },
    {
      "key": "芒果资源",
      "name": "芒果资源(切)",
      "type": 1,
      "api": "https://mgzyz1.com/api.php/provide/vod/at/json",
      "searchable": 1,
      "quickSearch": 1
    },
    {
      "key": "美少女资源",
      "name": "美少女资源(切)",
      "type": 0,
      "api": "https://www.msnii.com/api/xml.php",
      "searchable": 1,
      "quickSearch": 1
    },
    {
      "key": "淫水机资源",
      "name": "淫水机资源(切)",
      "type": 0,
      "api": "https://www.xrbsp.com/api/xml.php",
      "searchable": 1,
      "quickSearch": 1
    },
    {
      "key": "香奶儿资源",
      "name": "香奶儿资源(切)",
      "type": 0,
      "api": "https://www.gdlsp.com/api/xml.php",
      "searchable": 1,
      "quickSearch": 1
    },
    {
      "key": "白嫖资源",
      "name": "白嫖资源(切)",
      "type": 0,
      "api": "https://www.kxgav.com/api/xml.php",
      "searchable": 1,
      "quickSearch": 1
    },
    {
      "key": "小湿妹资源",
      "name": "小湿妹资源(切)",
      "type": 0,
      "api": "https://www.afasu.com/api/xml.php",
      "searchable": 1,
      "quickSearch": 1
    },
    {
      "key": "黄AV资源",
      "name": "黄AV资源(切)",
      "type": 0,
      "api": "https://www.pgxdy.com/api/xml.php",
      "searchable": 1,
      "quickSearch": 1
    },
    {
      "key": "JAV名优馆",
      "name": "JAV名优馆(切)",
      "type": 0,
      "api": "http://mygzycj.com/api.php?ac=videolist",
      "searchable": 1,
      "quickSearch": 1
    },
    {
      "key": "久草资源",
      "name": "久草资源(切)",
      "type": 0,
      "api": "http://jcspcj8.com/api?ac=videolist",
      "searchable": 1,
      "quickSearch": 1
    },
    {
      "key": "富二代资源",
      "name": "富二代资源(切)",
      "type": 0,
      "api": "http://f2dcj6.com/sapi?ac=videolist",
      "searchable": 1,
      "quickSearch": 1
    },
    {
      "key": "字幕网",
      "name": "字幕网(切)",
      "type": 0,
      "api": "http://zmcj88.com/sapi?ac=videolist",
      "searchable": 1,
      "quickSearch": 1
    },
    {
      "key": "利来资源",
      "name": "利来资源(切)",
      "type": 0,
      "api": "http://llzxcj.com/inc/sck.php?ac=videolist",
      "searchable": 1,
      "quickSearch": 1
    }
  ],
  "lives": [
    {
      "group": "redirect",
      "channels": [
        {
          "name": "live",
          "urls": [
            "proxy://do=live&type=txt&ext=aHR0cHM6Ly9naXRsYWIuY29tL3l1enVvbmFuL3JlbWV4Ly0vcmF3L21hc3Rlci9YVFYudHh0"
          ]
        }
      ]
    }
  ],
  "parses": [
    {
      "name": "解析聚合",
      "type": 3,
      "url": "Demo"
    },
    {
      "name": "Json并发",
      "type": 2,
      "url": "Parallel"
    },
    {
      "name": "Json轮询",
      "type": 2,
      "url": "Sequence"
    },
    {
      "name": "萌瓜",
      "type": 0,
      "url": "https://dm.2g88.vip/?url="
    }
  ],
  "flags": [
    "youku",
    "qq",
    "iqiyi",
    "qiyi",
    "letv",
    "sohu",
    "tudou",
    "pptv",
    "mgtv",
    "wasu",
    "bilibili"
  ],
  "badVideos": [
    "https://json.legendwhb.cn/data/1658315755.m3u8"
  ],
  "ijk": [
    {
      "group": "软解码",
      "options": [
        {
          "category": 4,
          "name": "opensles",
          "value": "0"
        },
        {
          "category": 4,
          "name": "overlay-format",
          "value": "842225234"
        },
        {
          "category": 4,
          "name": "framedrop",
          "value": "1"
        },
        {
          "category": 4,
          "name": "soundtouch",
          "value": "1"
        },
        {
          "category": 4,
          "name": "start-on-prepared",
          "value": "1"
        },
        {
          "category": 1,
          "name": "http-detect-range-support",
          "value": "0"
        },
        {
          "category": 1,
          "name": "fflags",
          "value": "fastseek"
        },
        {
          "category": 2,
          "name": "skip_loop_filter",
          "value": "48"
        },
        {
          "category": 4,
          "name": "reconnect",
          "value": "1"
        },
        {
          "category": 4,
          "name": "max-buffer-size",
          "value": "5242880"
        },
        {
          "category": 4,
          "name": "enable-accurate-seek",
          "value": "0"
        },
        {
          "category": 4,
          "name": "mediacodec",
          "value": "0"
        },
        {
          "category": 4,
          "name": "mediacodec-auto-rotate",
          "value": "0"
        },
        {
          "category": 4,
          "name": "mediacodec-handle-resolution-change",
          "value": "0"
        },
        {
          "category": 4,
          "name": "mediacodec-hevc",
          "value": "0"
        }
      ]
    },
    {
      "group": "硬解码",
      "options": [
        {
          "category": 4,
          "name": "opensles",
          "value": "0"
        },
        {
          "category": 4,
          "name": "overlay-format",
          "value": "842225234"
        },
        {
          "category": 4,
          "name": "framedrop",
          "value": "1"
        },
        {
          "category": 4,
          "name": "soundtouch",
          "value": "1"
        },
        {
          "category": 4,
          "name": "start-on-prepared",
          "value": "1"
        },
        {
          "category": 1,
          "name": "http-detect-range-support",
          "value": "0"
        },
        {
          "category": 1,
          "name": "fflags",
          "value": "fastseek"
        },
        {
          "category": 2,
          "name": "skip_loop_filter",
          "value": "48"
        },
        {
          "category": 4,
          "name": "reconnect",
          "value": "1"
        },
        {
          "category": 4,
          "name": "max-buffer-size",
          "value": "5242880"
        },
        {
          "category": 4,
          "name": "enable-accurate-seek",
          "value": "0"
        },
        {
          "category": 4,
          "name": "mediacodec",
          "value": "1"
        },
        {
          "category": 4,
          "name": "mediacodec-auto-rotate",
          "value": "1"
        },
        {
          "category": 4,
          "name": "mediacodec-handle-resolution-change",
          "value": "1"
        },
        {
          "category": 4,
          "name": "mediacodec-hevc",
          "value": "1"
        }
      ]
    }
  ],
  "ads": [
    "mimg.0c1q0l.cn",
    "www.googletagmanager.com",
    "www.google-analytics.com",
    "mc.usihnbcq.cn",
    "mg.g1mm3d.cn",
    "mscs.svaeuzh.cn",
    "cnzz.hhttm.top",
    "tp.vinuxhome.com",
    "cnzz.mmstat.com",
    "www.baihuillq.com",
    "s23.cnzz.com",
    "z3.cnzz.com",
    "c.cnzz.com",
    "stj.v1vo.top",
    "z12.cnzz.com",
    "img.mosflower.cn",
    "tips.gamevvip.com",
    "ehwe.yhdtns.com",
    "xdn.cqqc3.com",
    "www.jixunkyy.cn",
    "sp.chemacid.cn",
    "hm.baidu.com",
    "s9.cnzz.com",
    "z6.cnzz.com",
    "um.cavuc.com",
    "mav.mavuz.com",
    "wofwk.aoidf3.com",
    "z5.cnzz.com",
    "xc.hubeijieshikj.cn",
    "tj.tianwenhu.com",
    "xg.gars57.cn",
    "k.jinxiuzhilv.com",
    "cdn.bootcss.com",
    "ppl.xunzhuo123.com",
    "xomk.jiangjunmh.top",
    "img.xunzhuo123.com",
    "z1.cnzz.com",
    "s13.cnzz.com",
    "xg.huataisangao.cn",
    "z7.cnzz.com",
    "xg.huataisangao.cn",
    "z2.cnzz.com",
    "s96.cnzz.com",
    "q11.cnzz.com",
    "thy.dacedsfa.cn",
    "xg.whsbpw.cn",
    "s19.cnzz.com",
    "z8.cnzz.com",
    "s4.cnzz.com",
    "f5w.as12df.top",
    "ae01.alicdn.com",
    "www.92424.cn",
    "k.wudejia.com",
    "vivovip.mmszxc.top",
    "qiu.xixiqiu.com",
    "cdnjs.hnfenxun.com",
    "cms.qdwght.com"
  ]
  
}
