{
    "主页url": "https://www.l0l.tv/ds.php/live",
    "分类url": "https://www.l0l.tv/ds.php/live?type={cateId}&Page={catePg}",
    "分类": "娱乐$1663#网游$1#单机$2793#手游$3203",
    "数组": "class=\"bj eclazy&&/div></div>",
    "标题": "title=\"\">&&<",
    "副标题": "主播：&&<",
    "链接": "href=\"/ds.php/live&&\"",
    "直接播放": "1",
    "嗅探词": ".m3u8#.flv#",
    "过滤词": "101.tv#/play/?vkey=#=https",
    "筛选":"1", "剧情":"0", "地区":"0", "年份":"0", "排序":"0",
    "类型": "1663--星秀$1663#户外$2165#二次元$2633#一起看$2135#美食$2752#颜值$2168#交友$4079#音乐$3793#体育$2356||1--英雄联盟$1#LOL云顶之弈$5485#穿越火线$4#DNF$2#魔兽世界$8#炉石传说$393#DOTA2$7#坦克世界$802#CSGO$862#魔兽争霸3$4615#问道$107#使命召唤$100137||2793--绝地求生$2793#主机游戏$100032#我的世界$1732#方舟$1997#怪物猎人$3519#逃离塔科夫$3493#怀旧游戏$100125#骑马与砍杀$4783#拾遗记$4913||3203--王者荣耀$2336#和平精英$3203#综合手游$100029#狼人杀$100049#QQ飞车$2928#CF手游$2413#跑跑手游$2620#皇室战争$2439#火影手游$2429"
}
