{
  "作者": "菜妮丝https://cainisi.cf",
  "站名": "OMOFUN",
  "主页url": "https://omofun.tv",
  "免嗅": "1",
  
  "分类": "日漫$20#剧场版$23",
  
  "分类url": "https://omofun.tv/vod/show{area}{by}{class}/id/{cateId}/page/{catePg}{year}.html",
  
  "副标题": "module-item-note\">&&</div>",
  
  "搜索模式": "0",
  "搜索url": "https://omofun.tv/index.php/ajax/suggest?mid=1&wd={wd}&limit=500",
  "搜索后缀":"/vod/detail/id/",
  
  "导演": "导演：&&</div>",
  "主演": "主演：&&</div>",
  "简介": "<p>&&</p>",
  
  "线路数组": "data-dropdown-value=&&</div>",
  "线路标题": "<span>&&</small>",
  
  "播放数组": "module-play-list\">&&</div>",
  
  "筛选":{
"20":[
  {"key":"class","name":"剧情","value":[
  {"n":"全部","v":""},
  {"n":"热血","v":"/class/热血"},
  {"n":"穿越","v":"/class/穿越"},
  {"n":"奇幻","v":"/class/奇幻"},
  {"n":"战斗","v":"/class/战斗"},
  {"n":"搞笑","v":"/class/搞笑"},
  {"n":"日常","v":"/class/日常"},
  {"n":"科幻","v":"/class/科幻"},
  {"n":"萌系","v":"/class/萌系"},
  {"n":"治愈","v":"/class/治愈"},
  {"n":"校园","v":"/class/校园"},
  {"n":"恋爱","v":"/class/恋爱"},
  {"n":"魔法","v":"/class/魔法"},
  {"n":"冒险","v":"/class/冒险"},
  {"n":"机战","v":"/class/机战"},
  {"n":"催泪","v":"/class/催泪"},
  {"n":"音乐","v":"/class/音乐"}]},
  
  {"key":"area","name":"地区","value":[
  {"n":"全部","v":""},
  {"n":"日本","v":"/area/日本"}]},
  
  {"key":"year","name":"年份","value":[
  {"n":"全部","v":""},
  {"n":"2022","v":"/year/2022"},
  {"n":"2021","v":"/year/2021"},
  {"n":"2020","v":"/year/2020"},
  {"n":"2019","v":"/year/2019"},
  {"n":"2018","v":"/year/2018"},
  {"n":"2017","v":"/year/2017"},
  {"n":"2016","v":"/year/2016"},
  {"n":"2015","v":"/year/2015"},
  {"n":"2014","v":"/year/2014"},
  {"n":"2013","v":"/year/2013"},
  {"n":"2012","v":"/year/2012"},
  {"n":"2011","v":"/year/2011"}]},
  
  {"key":"by","name":"排序","value":[
  {"n":"时间","v":"/by/time"},
  {"n":"人气","v":"/by/hits"},
  {"n":"评分","v":"/by/score"}]}],
  
"23":[
  {"key":"class","name":"剧情","value":[
  {"n":"全部","v":""},
  {"n":"剧场版","v":"/class/剧场版"}]},
  
  {"key":"area","name":"地区","value":[
  {"n":"全部","v":""},
  {"n":"日本","v":"/area/日本"}]},
  
  {"key":"year","name":"年份","value":[
  {"n":"全部","v":""},
  {"n":"2022","v":"/year/2022"},
  {"n":"2021","v":"/year/2021"},
  {"n":"2020","v":"/year/2020"},
  {"n":"2019","v":"/year/2019"},
  {"n":"2018","v":"/year/2018"},
  {"n":"2017","v":"/year/2017"},
  {"n":"2016","v":"/year/2016"},
  {"n":"2015","v":"/year/2015"},
  {"n":"2014","v":"/year/2014"},
  {"n":"2013","v":"/year/2013"},
  {"n":"2012","v":"/year/2012"},
  {"n":"2011","v":"/year/2011"},
  {"n":"2010","v":"/year/2010"},
  {"n":"2009","v":"/year/2009"},
  {"n":"2008","v":"/year/2008"},
  {"n":"2007","v":"/year/2007"},
  {"n":"2006","v":"/year/2006"}]},
  
  {"key":"by","name":"排序","value":[
  {"n":"时间","v":"/by/time"},
  {"n":"人气","v":"/by/hits"},
  {"n":"评分","v":"/by/score"}]}]}
}
