{
  "name": "555dy",
  "url": "https://555dy1.com",
  "User": "空",
  "shouye": "1",
 "fenlei": "netflix$/vodshow/1---Netflix-----#电影$/vodshow/1--------#连续剧$/vodshow/2--------#动漫$/vodshow/4--------#综艺纪录$/vodshow/3--------",
    "houzhui": "---.html",
  "shifouercijiequ": "1",
  "jiequqian": "class=\"module-items",
  "jiequhou": "id=\"page",
  "jiequshuzuqian": "<a",
  "jiequshuzuhou": "/a>",
  "tupianqian": "data-original=\"",
  "tupianhou": "\"",
  "biaotiqian": "title=\"",
  "biaotihou": "\"",
  "lianjieqian": "href=\"",
  "lianjiehou": "\"",

 
  "fubiaotiqian": "class=\"module-item-note\">",
  "fubiaotihou": "</div>",

  "sousuoqian": "/index.php/ajax/suggest?mid=1&wd=",
  "sousuohou": "&limit=500",
  "sousuohouzhui": "/voddetail/",
  "ssmoshi": "0",
  "sousuoshifouercijiequ": "0",
  "jspic": "pic",
  "jsname": "name",
  "jsid": "id",
  "ssjiequqian": "空",
  "ssjiequhou": "空",
  "ssjiequshuzuqian": "空",
  "ssjiequshuzuhou": "空",
  "sstupianqian": "空",
  "sstupianhou": "空",
  "ssbiaotiqian": "空",
  "ssbiaotihou": "空",
  "sslianjieqian": "空",
  "sslianjiehou": "空",
  "bfshifouercijiequ": "0",
  "bfjiequqian": "空",
  "bfjiequhou": "空",
  "bfjiequshuzuqian": "class=\"module-play-list",
  "bfjiequshuzuhou": "</div>",
  "zhuangtaiqian": "更新：</span>",
  "zhuangtaihou": "</div>",
  "daoyanqian": "导演：</span>",
  "daoyanhou": "</div>",
  "zhuyanqian": "主演：</span>",
  "zhuyanhou": "</div>",
  "juqingqian": "<p>",
  "juqinghou": "</p>",
  "xlshifouercijiequ": "1",
  "xljiequqian": "选择播放源",
  "xljiequhou": "class=\"shortcuts-mobile-overlay",
  "xljiequshuzuqian": "class=\"module-tab-item",
  "xljiequshuzuhou": "<small>",
  "xlbiaotiqian": "<span>",
  "xlbiaotihou": "</span>",
  "bfyshifouercijiequ": "0",
  "bfyjiequqian": "空",
  "bfyjiequhou": "空",
  "bfyjiequshuzuqian": "<a",
  "bfyjiequshuzuhou": "/a>",
  "bfbiaotiqian": "<span>",
  "bfbiaotihou": "</span>",
  "bflianjieqian": "href=\"",
  "bflianjiehou": "\""}
