{"name": "有声小说",
"url": "https://m.tingzh.com",
"ua": "Mozilla/5.0 (iPhone; CPU iPhone OS 13_2_3 like Mac OS X) AppleWebKit/605.1.15 (KHTML, like Gecko) Version/13.0.3 Mobile/15E148 Safari/604.1",
"User": "空",
"直接播放": "0",
"列表显示": "0",
"横图显示": "0",
"fenlei": "玄幻$/list/1-#武侠$/list/2-#都市$/list/3-#言情$/list/4-#科幻$/list/5-",
"houzhui": ".html",
"qishiye": "1",
"shifouercijiequ": "0",
"jiequqian": "空",
"jiequhou": "空",
"jiequshuzuqian": "class=\"bookbox\"",
"jiequshuzuhou": "class=\"intro_line\"",
"tupianqian": "https://gimg2.baidu.com/image_search/src=http%3A%2F%2Fcbgccdn.thecover.cn%2FFukWL0vxvTk9FWs6ba6qUgyCLSKH&refer=http%3A%2F%2Fcbgccdn.thecover.cn&app=2002&size=f9999,10000&q=a80&n=0&g=0n&fmt=auto?sec=1662464355&t=f1e24cbc676abe4a67d7e4df2f76e91c",
"tupianhou": "\"",
"tupianqianzhui": "空",
"biaotiqian": "class=\"bookname\">",
"biaotihou": "</h4>",
"lianjieqian": "bookid=\"",
"lianjiehou": "\"",
"ljqianzhui": "https://m.tingzh.com/book/",
"ljhouzhui": ".html",
"fubiaotiqian": "<span>状态：</span>",
"fubiaotihou": "</div>",
"sousuohouzhui": "/book/",
"jspic": "pic",
"jsname": "name",
"jsid": "id",
"sousuoqian": "/search.php?searchword=",
"sousuohou": "&Submit=",
"ssmoshi": "1",
"sousuoshifouercijiequ": "0",
"ssjiequqian": "空",
"ssjiequhou": "空",
"ssjiequshuzuqian": "class=\"bookbox\"",
"ssjiequshuzuhou": "class=\"intro_line\"",
"sstupianqian": "https://gimg2.baidu.com/image_search/src=http%3A%2F%2Fcbgccdn.thecover.cn%2FFukWL0vxvTk9FWs6ba6qUgyCLSKH&refer=http%3A%2F%2Fcbgccdn.thecover.cn&app=2002&size=f9999,10000&q=a80&n=0&g=0n&fmt=auto?sec=1662464355&t=f1e24cbc676abe4a67d7e4df2f76e91c",
"sstupianhou": "\"",
"sstupianqianzhui": "空",
"ssbiaotiqian": "class=\"bookname\">",
"ssbiaotihou": "</h4>",
"sslianjieqian": "bookid=\"",
"sslianjiehou": "\"",
"ssljqianzhui": "https://m.tingzh.com/book/",
"ssljhouzhui": ".html",
"bfshifouercijiequ": "0",
"bfjiequqian": "空",
"bfjiequhou": "空",
"bfjiequshuzuqian": "id=\"playlist\"",
"bfjiequshuzuhou": "</ul>",
"zhuangtaiqian": "<div>状态：<span>",
"zhuangtaihou": "</span>",
"daoyanqian": "<div>作者：<span>",
"daoyanhou": "</span>",
"zhuyanqian": "<div>播音：<span>",
"zhuyanhou": "</span>",
"juqingqian": "class=\"book_intro\">",
"juqinghou": "</div>",
"bfyshifouercijiequ": "0",
"bfyjiequqian": "空",
"bfyjiequhou": "空",
"bfyjiequshuzuqian": "<a",
"bfyjiequshuzuhou": "/a>",
"bfbiaotiqian": ">",
"bfbiaotihou": "<",
"bflianjieqian": "href=\"",
"bflianjiehou": "\"",
"bfqianzhui": ""}
