{
  "name": "耐克TV",
  "url": "https://www.ajeee.com/",
  "User": "空",
  "shouye": "1",
  "fenlei": "电影$/show/Movie/page/#国产剧$/show/Tv/area/大陆/page/#电视剧$/show/Tv/page/#综艺$/show/Variety/page/",
  "houzhui": ".html",
  "shifouercijiequ": "1",
  "jiequqian": "module-page",
  "jiequhou": "id=\"page",
  "jiequshuzuqian": "<a",
  "jiequshuzuhou": "no-referrer",
  "tupianqian": "data-original=\"",
  "tupianhou": "\"",
  "biaotiqian": "title=\"",
  "biaotihou": "\"",
  "lianjieqian": "href=\"",
  "lianjiehou": "\"",
  "sousuoqian": "/index.php/ajax/suggest?mid=1&wd=",
  "sousuohou": "&limit=500",
  "sousuohouzhui": "/detail/",
  "ssmoshi": "0",
  "sousuoshifouercijiequ": "0",
  "jspic": "pic",
  "jsname": "name",
  "jsid": "id",
  "ssjiequqian": "空",
  "ssjiequhou": "空",
  "ssjiequshuzuqian": "空",
  "ssjiequshuzuhou": "空",
  "sstupianqian": "空",
  "sstupianhou": "空",
  "ssbiaotiqian": "空",
  "ssbiaotihou": "空",
  "sslianjieqian": "空",
  "sslianjiehou": "空",
  "bfshifouercijiequ": "0",
  "bfjiequqian": "空",
  "bfjiequhou": "空",
  "zhuangtaiqian": "class=\"module-item-note\">",
  "zhuangtaihou": "</div>",
  "daoyanqian": "class=\"module-info-item-title\">",
  "daoyanhou": "</a>",
  "zhuyanqian": "主演：",
  "zhuyanhou": "</div>",
  "juqingqian": "class=\"module-info-introduction-content\">",
  "juqinghou": "</p>",
  "bfjiequshuzuqian": "class=\"module-list",
  "bfjiequshuzuhou": "</div>",
  "bfyshifouercijiequ": "0",
  "bfyjiequqian": "空",
  "bfyjiequhou": "空",
  "bfyjiequshuzuqian": "<a",
  "bfyjiequshuzuhou": "/a>",
  "bfbiaotiqian": "<span>",
  "bfbiaotihou": "</span>",
  "bflianjieqian": "href=\"",
  "bflianjiehou": "\""
}
