{
"ua": "",
"dtUrl": "https://1024bt25.xyz{vid}",
"dtNode": "//div[@id='content']",
"dtName": "//h2/text()",
"dtNameR": "",
"dtImg": "/@null",
"dtCate": "//tbody//td[1]/text()",
"dtCateR": "",
"dtYear": "//tbody//td[2]/text()",
"dtYearR": "",
"dtDesc": "concat(//ol//text(),'')",
"dtDescR": "",
"dtFromNode": "//div[@id='wall']",
"dtFromName": "concat('磁力链接','')",
"dtFromNameR": "",
"dtUrlNode": "//div[@id='magnet'][1]",
"dtUrlSubNode": "//a",
"dtUrlId": "/@href",
"dtUrlIdR": "",
"dtUrlName": "/text()", 
"playUrl": "{playUrl}",
"playUa": "",
"searchUrl": "https://1024bt25.xyz/main-search-kw-{wd}-length-1.html",
"scVodNode": "//div[@class='item-title']/h3/a",
"scVodName": "/@title",
"scVodId": "/@href",
"scVodIdR": "",
"scVodImg": "/@null",
"scVodImgR": "",
  "scVodMark": ""
}