{
	"ua": "",
    // 首页地址 用于获取 分类和首页推荐
	"homeUrl": "https://goguma57.tv",
    // 手动设置分类，如果手动设置了分类则不使用上面的分类xpath获取分类  例如 "cateManual": {"电影": "1", "电视剧": "2"},
	"cateManual":{"드라마": "2", "연예오락": "3", "영화": "1", "중국드라마": "39", "애니메이션": "4"},
    // 首页推荐视频的节点
	"homeVodNode": "//ul[contains(@class,'m-list')]",
    // 首页推荐视频的名称
	"homeVodName": "//li/a/@title",
    // 二次处理正则
    "homeVodNameR": "",
    // 首页推荐视频的id
	"homeVodId": "//li/a/@href",
    // 二次处理正则
	"homeVodIdR": "/index.php/vod/detail/id/(\\w+).html",
    // 首页推荐视频的图片
	"homeVodImg": "//li/a/img/@src",
    // 二次处理正则
    "homeVodImgR": "",
    // 首页推荐视频的简介
	"homeVodMark": "//li/a/div/span/text()",
    // 二次处理正则
    "homeVodMarkR": "",
    // 分类页地址 {cateId} 分类id {catePg} 当前页
	"cateUrl": "https://goguma57.tv/index.php/vod/show/id/{cateId}/page/{catePg}.html",
    // 同上面的homeVod字段 分类列表中的视频信息
	"cateVodNode": "//div[contains(@class,'box')]/div [contains(@class,'box_con')]/ul/li",
	"cateVodName": "/div/a/@title",
	"cateVodId": "/div/a/@href",
	"cateVodIdR": "/index.php/vod/detail/id/(\\w+).html",
	"cateVodImg": "/div/img/@src",
	"cateVodMark": "/div/span/text()",
    // 详情页地址 用于获取详情页信息 及 播放列表和地址
	"dtUrl": "https://goguma57.tv/index.php/vod/detail/id/{vid}.html",
    // 详情节点
	"dtNode": "//body",
    // 视频名
	"dtName": "//div[contains(@class,'s-top g-clear')]/div[contains(@class,'s-top-right')]/div[contains(@class,'s-top-info')]/div[contains(@class,'s-top-info-title')]/ div[contains(@class,'title-left g-clear')]/h1/text()",
	"dtNameR": "",
    // 视频图片
	"dtImg": "//div[contains(@class,'s-top g-clear')]/div[contains(@class,'s-top-left')]/div[contains(@class,'s-cover')]/a/img/@src",
	"dtImgR": "",
    // 视频分类
	"dtCate": "//span[contains(@class,'text-muted hidden-xs') and contains(text(), '类型：')]/following-sibling::*/text()",
	"dtCateR": "",
    // 视频年份
	"dtYear": "//span[contains(@class,'text-muted hidden-xs') and contains(text(), '年份：')]/following-sibling::*/text()",
    // 视频简介
	"dtDesc": "//div[contains(@class,'stui-content__desc col-pd clearfix')]/text()",
	"dtDescR": "",
    // 播放源节点
	"dtFromNode": "//div[contains(@class,'s-top-list-ji')]",
    // 播放源名称/h2/text()
	"dtFromName": "/h2/text()",
    // 二次处理正则
	"dtFromNameR": "",
    // 播放列表节点
	"dtUrlNode": "//div[contains(@class,'num-tab js-tabs')]",
    // 播放地址节点
	"dtUrlSubNode": "/div[contains(@class,'num-tab-main')]/a",
    // 播放地址
	"dtUrlId": "/@href",
    // 二次处理正则
	"dtUrlIdR": "/index.php/vod/play/id/(\\S+).html",
    // 剧集名称
	"dtUrlName": "/text()",
    // 二次处理正则
	"dtUrlNameR": "",
    // 播放页面的地址 {playUrl} 对应上面 dtUrlId 获取到的地址
	"playUrl": "https://goguma57.tv/index.php/vod/play/id/{playUrl}.html",
    // 解析webview的user-agent
	"playUa": "",
    // 搜索地址
	"searchUrl": "https://goguma57.tv/index.php/vod/search.html?wd={wd}",
    // 同上面的homeVod字段 搜索结果中的视频信息, 这里有对苹果cms suggest搜索接口的特殊支持，参考示例中的极品影视
	"scVodNode": "//div[3]/div[1]/ul/li",
	"scVodName": "/a/@title",
	"scVodId": "/a/@href",
	"scVodIdR": "/index.php/vod/detail/id/(\\w+).html",
	"scVodImg": "/a/img/@src",
	"scVodMark": ""
}
