{
    "ua": "Mozilla/5.0 (iPhone; CPU iPhone OS 13_2_3 like Mac OS X) AppleWebKit/605.1.15 (KHTML, like Gecko) Version/13.0.3 Mobile/15E148 Safari/604.1",
    "homeUrl": "https://www.senfun.net/",
    "dcVipFlag": "true",
    "dcPlayUrl": "true",
    "cateManual": {"TV动画":"1","BD动画":"2","剧场版":"3","欧美动漫":"37"},
    "homeVodNode": "//a[@class='module-poster-item module-item']",
    "homeVodName": "/@title",
    "homeVodId": "/@href",
    "homeVodIdR": "/bangumi/(\\w+).html",
    "homeVodImg": "//img[@class='lazy lazyload']/@data-original",
    "homeVodMark": "//div[@class='module-item-note']/text()",
    "cateUrl": "https://www.senfun.net/show/{cateId}/by/{by}/page/{catePg}year/{year}.html",
    "cateVodNode": "//a[@class='module-poster-item module-item']",
    "cateVodName": "/@title",
    "cateVodId": "/@href",
    "cateVodIdR": "/bangumi/(\\w+).html",
    "cateVodImg": "//img[@class='lazy lazyload']/@data-original",
    "cateVodMark": "//div[@class='module-item-note']/text()",
    "dtUrl": "https://www.senfun.net/bangumi/{vid}.html",
    "dtNode": "//div[@class='module module-info']",
    "dtName": "//div[@class='module-info-main']/div[@class='module-info-heading']/h1/text()",
    "dtNameR": "",
    "dtImg": "//div[@class='module-info-poster']//div[@class='module-item-pic']/img/@data-original",
    "dtImgR": "\\S+(http\\S+)",
    "dtCate": "//div[@class='module-info-tag-link']/a[2]/text()",
    "dtYear": "//div[@class='module-info-tag-link']/a[1]/text()",
    "dtArea": "//div[@class='module-info-tag-link'][2]/a/text()",
    "dtActor": "//div[@class='module-info-items']//span[contains(@class,'module-info-item-title') and contains(text(), '主演：')]/following-sibling::div/a/text()",
    "dtDirector": "//div[@class='module-info-items']//span[contains(@class,'module-info-item-title') and contains(text(), '导演：')]/following-sibling::div/a/text()",
    "dtDesc": "//div[@class='module-info-introduction-content']/p/text()",
    "dtFromNode": "//div[contains(@class, 'module-tab-item tab-item')]/span/text()",
    "dtFromName": "/text()",
    "dtUrlNode": "//div[contains(@class, 'module-play-list-content')]",
    "dtUrlSubNode": "/a",
    "dtUrlId": "/@href",
    "dtUrlIdR": "/watch/(\\S+).html",
    "dtUrlName": "/span/text()",
    "dtUrlNameR": "",
    "playUrl": "https://www.senfun.net/watch/{playUrl}.html",
    "playUa": "",
    "searchUrl": "https://www.senfun.net/index.php/ajax/suggest?mid=1&wd={wd}&limit=10",
    "scVodNode": "json:list",
    "scVodName": "name",
    "scVodId": "id",
    "scVodIdR": "",
    "scVodImg": "pic",
    "scVodMark": "",
    "filter":{
    "1":[
          {
        "key": "year",
        "name": "年份",
        "value": [
          {"n": "全部","v": ""},
          {"n": "2022","v": "2022"},
          {"n": "2021","v": "2021"},
          {"n": "2020","v": "2020"},
          {"n": "2019","v": "2019"},
          {"n": "2018","v": "2018"},
          {"n": "2017","v": "2017"},
          {"n": "2016","v": "2016"},
          {"n": "2015","v": "2015"},
          {"n": "2014","v": "2014"},
          {"n": "2013","v": "2013"},
          {"n": "2012","v": "2012"},
          {"n": "2011","v": "2011"},
          {"n": "2010","v": "2010"},
          {"n": "2009","v": "2009"},
          {"n": "2008","v": "2008"},
          {"n": "2007","v": "2007"},
          {"n": "2006","v": "2006"},
          {"n": "2005","v": "2005"}
        ]
      },
      {
        "key": "by",
        "name": "排序",
        "value": [
          {"n": "全部","v": ""},
          {"n": "时间","v": "time"},
          {"n": "人气","v": "hits"},
          {"n": "评分","v": "score"}
         ]
        }
      ],
    "2":[
          {
        "key": "year",
        "name": "年份",
        "value": [
          {"n": "全部","v": ""},
          {"n": "2022","v": "2022"},
          {"n": "2021","v": "2021"},
          {"n": "2020","v": "2020"},
          {"n": "2019","v": "2019"},
          {"n": "2018","v": "2018"},
          {"n": "2017","v": "2017"},
          {"n": "2016","v": "2016"},
          {"n": "2015","v": "2015"},
          {"n": "2014","v": "2014"},
          {"n": "2013","v": "2013"},
          {"n": "2012","v": "2012"},
          {"n": "2011","v": "2011"},
          {"n": "2010","v": "2010"},
          {"n": "2009","v": "2009"},
          {"n": "2008","v": "2008"},
          {"n": "2007","v": "2007"},
          {"n": "2006","v": "2006"},
          {"n": "2005","v": "2005"}
        ]
      },
      {
        "key": "by",
        "name": "排序",
        "value": [
          {"n": "全部","v": ""},
          {"n": "时间","v": "time"},
          {"n": "人气","v": "hits"},
          {"n": "评分","v": "score"}
         ]
        }
      ],
    "3":[
          {
        "key": "year",
        "name": "年份",
        "value": [
          {"n": "全部","v": ""},
          {"n": "2022","v": "2022"},
          {"n": "2021","v": "2021"},
          {"n": "2020","v": "2020"},
          {"n": "2019","v": "2019"},
          {"n": "2018","v": "2018"},
          {"n": "2017","v": "2017"},
          {"n": "2016","v": "2016"},
          {"n": "2015","v": "2015"},
          {"n": "2014","v": "2014"},
          {"n": "2013","v": "2013"},
          {"n": "2012","v": "2012"},
          {"n": "2011","v": "2011"},
          {"n": "2010","v": "2010"},
          {"n": "2009","v": "2009"},
          {"n": "2008","v": "2008"},
          {"n": "2007","v": "2007"},
          {"n": "2006","v": "2006"},
          {"n": "2005","v": "2005"}
        ]
      },
      {
        "key": "by",
        "name": "排序",
        "value": [
          {"n": "全部","v": ""},
          {"n": "时间","v": "time"},
          {"n": "人气","v": "hits"},
          {"n": "评分","v": "score"}
         ]
        }
      ],
    "37":[
          {
        "key": "year",
        "name": "年份",
        "value": [
          {"n": "全部","v": ""},
          {"n": "2022","v": "2022"},
          {"n": "2021","v": "2021"},
          {"n": "2020","v": "2020"},
          {"n": "2019","v": "2019"},
          {"n": "2018","v": "2018"},
          {"n": "2017","v": "2017"},
          {"n": "2016","v": "2016"},
          {"n": "2015","v": "2015"},
          {"n": "2014","v": "2014"},
          {"n": "2013","v": "2013"},
          {"n": "2012","v": "2012"},
          {"n": "2011","v": "2011"},
          {"n": "2010","v": "2010"},
          {"n": "2009","v": "2009"},
          {"n": "2008","v": "2008"},
          {"n": "2007","v": "2007"},
          {"n": "2006","v": "2006"},
          {"n": "2005","v": "2005"}
        ]
      },
      {
        "key": "by",
        "name": "排序",
        "value": [
          {"n": "全部","v": ""},
          {"n": "时间","v": "time"},
          {"n": "人气","v": "hits"},
          {"n": "评分","v": "score"}
         ]
        }
      ]
     }
    }