{
  "sites": [
    {
      "key": "学堂1",
      "name": "儿童乐园",
      "type": 3,
      "api": "csp_Bili",
      "searchable": 0,
      "quickSearch": 0,
      "filterable": 1,
      "ext": "https://gitlab.com/yuzuonan/remex/-/raw/master/bilibili/%E5%84%BF%E7%AB%A5.json"
    },
    {
      "key": "学堂2",
      "name": "小学学习",
      "type": 3,
      "api": "csp_Bili",
      "searchable": 0,
      "quickSearch": 0,
      "filterable": 1,
      "ext": "https://gitlab.com/yuzuonan/remex/-/raw/master/bilibili/%E5%B0%8F%E5%AD%A6.json"
    },
    {
      "key": "学堂3",
      "name": "初中学习",
      "type": 3,
      "api": "csp_Bili",
      "searchable": 0,
      "quickSearch": 0,
      "filterable": 1,
      "ext": "https://gitlab.com/yuzuonan/remex/-/raw/master/bilibili/%E5%88%9D%E4%B8%AD.json"
    },
    {
      "key": "学堂4",
      "name": "高中学习",
      "type": 3,
      "api": "csp_Bili",
      "searchable": 0,
      "quickSearch": 0,
      "filterable": 1,
      "ext": "https://gitlab.com/yuzuonan/remex/-/raw/master/bilibili/%E9%AB%98%E4%B8%AD.json"
    },
    	{
        "key":"空中课堂",
        "name":"🐞空中课堂",
        "type":3,
        "api":"csp_Bili",
        "searchable":1,
        "quickSearch":1,
        "filterable":1,
        "ext":"https://gitlab.com/yuzuonan/remex/-/raw/master/XP/%E8%AF%BE%E5%A0%82.json"
        },
         
    {
      "key": "push_agent",
      "name": "推送",
      "type": 3,
      "api": "csp_PushAgent",
      "searchable": 0,
      "quickSearch": 0,
      "filterable": 0,
      "ext": "9af57eacd8b149c8ba20b69989205fd4"
    }
   
  ],
  "lives": [
    {
      "group": "redirect",
      "channels": [
        {
          "name": "redirect",
          "urls": [
            "proxy://do=live&type=txt&ext="
          ]
        }
      ]
    }
  ],
  "parses": [
    {
      "name": "解析聚合",
      "type": 3,
      "url": "Demo"
    },
    {
      "name": "Json并发",
      "type": 2,
      "url": "Parallel"
    },
    {
      "name": "Json轮询",
      "type": 2,
      "url": "Sequence"
    },
    {
      "name": "福气",
      "type": 1,
      "url": "https://play.fuqizhishi.com/maotv/API.php?appkey=xiongdimenbieguaiwodingbuzhulegailekey07201538&url="
    },
    {"name":"印记","type":1,"url":"http://47.98.234.2:7768/api.php?url=","ext":{"flag":["qq","qiyi","mgtv","youku","letv","sohu","xigua","1905"],"header":{"User-Agent":"Dart/2.14 (dart:io)"}}},
    {
      "name": "翼神",
      "type": 1,
      "url": "http://27.124.4.42:4567/jhjson/ceshi.php?url="
    },
    {
      "name": "蓝天",
      "type": 1,
      "url": "https://svip.spchat.top/api/?type=ys&key=bKemW41JnxmQb4l67h&url=",
      "ext": {
        "flag": [
          "rx"
        ]
      }
    },
    {
      "name": "夜幕",
      "type": 0,
      "url": "https://www.yemu.xyz/?url="
    },
    {"name":"星辰","type":1,"url":"https://svip.spchat.top/api/?type=ys&key=bKemW41JnxmQb4l67h&url=","ext":{"flag":["rx"]}},
    {
      "name": "盖亚",
      "type": 0,
      "url": "https://www.gai4.com/?url="
    },
    {
      "name": "南府",
      "type": 1,
      "url": "https://www.nfjx.xyz/player/?url=",
      "ext": {
        "flag": [
          "VIP"
        ]
      }
    },
    {
      "name": "爱豆",
      "type": 0,
      "url": "https://jx.aidouer.net/?url="
    },
    {
      "name": "冰豆",
      "type": 0,
      "url": "https://bd.jx.cn/?url="
    },
    {
      "name": "江湖",
      "type": 1,
      "url": "http://103.40.240.46/jh/?url=",
      "ext": {
        "flag": [
          "renrenmi",
          "qq",
          "腾讯",
          "youku",
          "优酷",
          "mgtv",
          "芒果",
          "xigua",
          "西瓜"
        ]
      }
    },
    {
      "name": "右江",
      "type": 1,
      "url": "http://124.222.68.182/jiexi/4kJX.php/?url=",
      "ext": {
        "flag": [
          "youku",
          "优酷",
          "mgtv",
          "芒果",
          "qq",
          "腾讯",
          "qiyi",
          "爱奇艺",
          "qq",
          "奇艺"
        ]
      }
    },
    {
      "name": "左岸",
      "type": 1,
      "url": "http://110.42.2.115:880/analysis/json/?uid=2100&my=fgjnoqstLMRUZ03489&url=",
      "ext": {
        "flag": [
          "qq",
          "qiyi",
          "mgtv",
          "youku",
          "letv",
          "sohu",
          "xigua",
          "1905",
          "优播线路",
          "腾播线路"
        ],
        "header": {
          "User-Agent": "Dart/2.14 (dart:io)"
        }
      }
    },
    {
      "name": "前途",
      "type": 1,
      "url": "https://good-vip.mmiyue.com/zhenbuka2/api/svip/HaShrcJUHwtH7TDdgUzHaWvJ1lWUZWiK.php?url=",
      "ext": {
        "flag": [
          "youku",
          "优酷",
          "mgtv",
          "芒果",
          "qq",
          "腾讯",
          "qiyi",
          "爱奇艺",
          "qq",
          "奇艺"
        ]
      }
    },
    {
      "name": "后路",
      "type": 1,
      "url": "https://za.kuanjv.com/?url=",
      "ext": {
        "flag": [
          "qq",
          "腾讯",
          "qiyi",
          "爱奇艺",
          "奇艺",
          "youku",
          "优酷",
          "sohu",
          "搜狐",
          "letv",
          "乐视",
          "mgtv",
          "芒果",
          "CL4K",
          "renrenmi",
          "ltnb",
          "bilibili",
          "1905",
          "xigua"
        ]
      }
    },
    {
      "name": "中原",
      "type": 1,
      "url": "http://110.42.2.115:880/analysis/json/?uid=2100&my=fgjnoqstLMRUZ03489&url=",
      "ext": {
        "flag": [
          "youku",
          "优酷",
          "mgtv",
          "芒果",
          "qq",
          "腾讯",
          "qiyi",
          "爱奇艺",
          "qq",
          "奇艺"
        ]
      }
    },
    {
		"name": "爱酷",
		"type": 1,
		"url": "https://cache.json.icu/home/api?type=ys&uid=292796&key=bhjknprtuyACFIWY78&url="
	}, {
		"name": "盘古",
		"type": 0,
		"url": "https://www.m3u8.tv.cdn.8old.cn/jx.php?url="
	}, 
    {
      "name": "王牌",
      "type": 0,
      "url": "https://za.kuanjv.com/?url=",
      "ext": {
        "flag": [
          "qq",
          "腾讯",
          "qiyi",
          "爱奇艺",
          "奇艺",
          "youku",
          "优酷",
          "mgtv",
          "芒果",
          "搜狐",
          "sohu",
          "letv",
          "乐视",
          "bilibili",
          "哔哩哔哩",
          "哔哩",
          "xigua",
          "西瓜"
        ]
      }
    },
    {
      "name": "二阶",
      "type": 1,
      "url": "http://110.42.2.115:880/analysis/json/?uid=2100&my=fgjnoqstLMRUZ03489&url=",
      "ext": {
        "flag": [
          "qq",
          "qiyi",
          "mgtv",
          "youku",
          "letv",
          "sohu",
          "xigua",
          "1905"
        ],
        "header": {
          "User-Agent": "Dart/2.14 (dart:io)"
        }
      }
    },
    {
      "name":"ko",
      "type":0,
      "url":"https://api.okjx.cc:3389/jx.php?url="
      },
    {
      "name": "ok",
      "type": 0,
      "url": "https://okjx.cc/?url=",
      "ext": {
        "flags": [
          "youku",
          "qq",
          "iqiyi",
          "qiyi",
          "letv",
          "sohu",
          "letv",
          "tudou",
          "pptv",
          "mgtv",
          "wasu",
          "bilibili",
          "leduo",
          "fq3",
          "fq4",
          "xueren",
          "duoduo",
          "duoduozy",
          "miaoparty",
          "miaoparty2",
          "miaoparty3",
          "renrenmi",
          "优酷",
          "芒果",
          "腾讯",
          "爱奇艺",
          "奇艺",
          "ltnb",
          "rx",
          "CL4K",
          "xfyun",
          "wuduzy",
          "xigua",
          "dmplay",
          "duoduozy"
        ]
      }
    },
    {
      "name": "QQYI",
      "type": 1,
      "url": "http://home.jundie.top:666/jiexi.php?url="
    },
    {
      "name": "美剧迷",
      "type": 1,
      "url": "https://php.cloudhai.cn/vip.php?url=",
      "ext": {
        "flag": [
          "bilibili",
          "哔哩哔哩",
          "哔哩",
          "sohu",
          "搜狐",
          "pptv"
        ]
      }
    },
    {
      "name": "红枫叶",
      "type": 1,
      "url": "https://jx.hfyrw.com/mao.go?url=",
      "ext": {
        "flag": [
          "qq",
          "腾讯",
          "qiyi",
          "爱奇艺",
          "奇艺",
          "youku",
          "优酷",
          "sohu",
          "搜狐",
          "letv",
          "乐视",
          "mgtv",
          "芒果",
          "CL4K",
          "renrenmi",
          "ltnb",
          "bilibili",
          "1905",
          "xigua"
        ]
      }
    },
    {
      "name": "01",
      "type": 1,
      "url": "http://106.52.218.221:88/?url=",
      "ext": {
        "flag": [
          "youku",
          "优酷",
          "mgtv",
          "芒果",
          "qq",
          "腾讯",
          "qiyi",
          "爱奇艺",
          "qq",
          "奇艺"
        ]
      }
    },
    {
      "name": "03",
      "type": 1,
      "url": "https://jx.xmflv.com/?url=",
      "ext": {
        "flag": [
          "youku",
          "优酷",
          "mgtv",
          "芒果",
          "qq",
          "腾讯",
          "qiyi",
          "爱奇艺",
          "qq",
          "奇艺"
        ]
      }
    },
    {
      "name": "02",
      "type": 1,
      "url": "https://json.hfyrw.com/mao.go?url=",
      "ext": {
        "flag": [
          "ltnb",
          "renrenmi"
        ]
      }
    },
    {
      "name": "05",
      "type": 1,
      "url": "https://sz.dxzj88.com/jxrjrm/jiaomi.php?url=",
      "ext": {
        "flag": [
          "renrenmi"
        ]
      }
    },
    {
      "name": "04",
      "type": 1,
      "url": "https://api.ldjx.cc/wp-api/getvodurl.php?token=1001&vid=",
      "ext": {
        "flag": [
          "leduo"
        ]
      }
    },
    {
      "name": "06",
      "type": 1,
      "url": "http://jhpc.manduhu.com/j1217.php?url=",
      "ext": {
        "flag": [
          "youku",
          "优酷",
          "qq",
          "腾讯",
          "mgtv",
          "芒果"
        ]
      }
    },
    {
      "name": "07",
      "type": 1,
      "url": "https://vvip.funsline.cn/api/?key=3xWfEoDf4V9p9Y20CR&url=",
      "ext": {
        "flag": [
          "ziqie",
          "youku",
          "优酷",
          "qiyi",
          "爱奇艺",
          "奇艺",
          "mgtv",
          "芒果",
          "qq",
          "腾讯"
        ]
      }
    },
    {
      "name": "08",
      "type": 1,
      "url": "https://jhpc.manduhu.com/j1217.php?url=",
      "ext": {
        "flag": [
          "qiyi",
          "爱奇艺",
          "奇艺",
          "mgtv",
          "芒果",
          "youku",
          "优酷",
          "pptv",
          "PPTV"
        ]
      }
    },
    {
      "name": "09",
      "type": 1,
      "url": "https://api.m3u8.tv:5678/home/api?type=ys&uid=1931000&key=gktuvyzABEORSYZ135&url=",
      "ext": {
        "flag": [
          "youku",
          "优酷",
          "qq",
          "腾讯",
          "mgtv",
          "芒果"
        ]
      }
    },
    {
      "name": "10",
      "type": 1,
      "url": "http://103.40.240.46/jh/?url=",
      "ext": {
        "flag": [
          "renrenmi",
          "qq",
          "腾讯",
          "youku",
          "优酷",
          "mgtv",
          "芒果",
          "xigua",
          "西瓜"
        ]
      }
    },
    {
      "name": "11",
      "type": 1,
      "url": "https://jhpc.manduhu.com/j1217.php?url=",
      "ext": {
        "flag": [
          "qq",
          "腾讯",
          "qiyi",
          "爱奇艺",
          "奇艺",
          "youku",
          "优酷",
          "mgtv",
          "芒果",
          "乐视",
          "letv",
          "PPTV",
          "pptv",
          "bilibili",
          "哔哩哔哩",
          "哔哩"
        ]
      }
    },
    {
      "name": "12",
      "type": 1,
      "url": "https://json.pangujiexi.com:12345/json.php?url=",
      "ext": {
        "flag": [
          "qq",
          "腾讯",
          "qiyi",
          "爱奇艺",
          "奇艺",
          "youku",
          "优酷",
          "mgtv",
          "芒果"
        ]
      }
    },
    {
      "name": "13",
      "type": 1,
      "url": "http://www.youhuifuligou.com/json/?id=7&url=",
      "ext": {
        "flag": [
          "qq",
          "腾讯",
          "qiyi",
          "爱奇艺",
          "奇艺",
          "youku",
          "优酷",
          "letv",
          "乐视",
          "xigua",
          "西瓜"
        ]
      }
    },
    {
      "name": "14",
      "type": 1,
      "url": "https://vip.aiaine.com/api/?key=8FN8gNAySnvJiMllxZ&url=",
      "ext": {
        "flag": [
          "ltnb",
          "renrenmi",
          "xfyun",
          "miaoparty",
          "miaoparty2",
          "miaoparty3",
          "longteng",
          "xueren"
        ]
      }
    },
    {
      "name": "15",
      "type": 1,
      "url": "https://json.5lp.net/json.php?url=",
      "ext": {
        "flag": [
          "ltnb",
          "renrenmi",
          "rx",
          "rongxing"
        ]
      }
    },
    {
      "name": "leduo",
      "type": 1,
      "url": "https://api.ldjx.cc/wp-api/getvodurl.php?token=1001&vid=",
      "ext": {
        "flag": [
          "leduo"
        ]
      }
    },
    {
      "name": "16",
      "type": 1,
      "url": "https://vip.rongxingvr.top/api/?key=JJEZkZIhzkA4cUtBfR&url=",
      "ext": {
        "flag": [
          "renrenmi",
          "rx",
          "rongxing",
          "mgtv",
          "芒果",
          "bilibili",
          "哔哩哔哩",
          "哔哩"
        ]
      }
    },
    {
      "name": "17",
      "type": 1,
      "url": "https://api.m3u8.tv:5678/home/api?type=ys&uid=9105801&key=huwxFGILMOQSTUZ679&url=",
      "ext": {
        "flag": [
          "qq",
          "腾讯",
          "qiyi",
          "爱奇艺",
          "奇艺",
          "youku",
          "优酷",
          "mgtv",
          "芒果"
        ]
      }
    },
    {
      "name": "18",
      "type": 1,
      "url": "https://aa.xkys.tv/json.php?url=",
      "ext": {
        "flag": [
          "wuduzy"
        ]
      }
    },
    {
      "name": "19",
      "type": 1,
      "url": "https://vip.aiaine.com/api/?key=fOWaGgFU45zlIjvbHI&url=",
      "ext": {
        "flag": [
          "ltnb",
          "renrenmi"
        ]
      }
    },
    {
      "name": "20",
      "type": 1,
      "url": "https://json.5lp.net/json.php?url=",
      "ext": {
        "flag": [
          "youku",
          "优酷",
          "mgtv",
          "芒果",
          "qq",
          "腾讯",
          "qiyi",
          "爱奇艺",
          "qq",
          "奇艺"
        ]
      }
    },
    {
      "name": "久久",
      "type": 0,
      "url": "http://42.193.18.62:9999/analysis.php?v=",
      "ext": {
        "flag": [
          "renrenmi",
          "qq",
          "腾讯",
          "youku",
          "优酷",
          "mgtv",
          "芒果",
          "xigua",
          "西瓜"
        ]
      }
    },
    {
      "name": "ltnb04",
      "type": 0,
      "url": "https://vip.bljiex.com/?v=",
      "ext": {
        "flag": [
          "ltnb"
        ]
      }
    },
    {
      "name": "飞扬",
      "type": 0,
      "url": "http://jx.gkkgj.cn/feiyang/analysis.php?v=",
      "ext": {
        "flag": [
          "qiyi",
          "qq",
          "pptv",
          "sohu",
          "mgtv",
          "xigua",
          "1905"
        ]
      }
    },
    {
      "name": "多多",
      "type": 1,
      "url": "http://qiqi.520say.cn/json/dd.php?url=",
      "ext": {
        "flag": [
          "qq",
          "腾讯",
          "qiyi",
          "爱奇艺",
          "奇艺",
          "youku",
          "优酷",
          "sohu",
          "搜狐",
          "letv",
          "乐视",
          "mgtv",
          "芒果",
          "CL4K",
          "renrenmi",
          "ltnb",
          "bilibili",
          "1905",
          "xigua"
        ]
      }
    },
    {
      "name": "九亿",
      "type": 1,
      "url": "https://m3u8.look4you.top/?url=",
      "ext": {
        "flag": [
          "qq",
          "腾讯",
          "qiyi",
          "爱奇艺",
          "奇艺",
          "youku",
          "优酷",
          "sohu",
          "搜狐",
          "letv",
          "乐视",
          "mgtv",
          "芒果",
          "CL4K",
          "renrenmi",
          "ltnb",
          "bilibili",
          "1905",
          "xigua"
        ]
      }
    },
    {
      "name": "融兴",
      "type": 1,
      "url": "https://svip.rongxingvr.top/api/?key=bpWXKrAJUKm3puOCH4&url=",
      "ext": {
        "flag": [
          "qq",
          "腾讯",
          "qiyi",
          "爱奇艺",
          "奇艺",
          "youku",
          "优酷",
          "sohu",
          "搜狐",
          "letv",
          "乐视",
          "mgtv",
          "芒果",
          "CL4K",
          "renrenmi",
          "ltnb",
          "bilibili",
          "1905",
          "xigua"
        ]
      }
    },
    {
      "name": "飞扬",
      "type": 0,
      "url": "http://jx.gkkgj.cn/feiyang/analysis.php?v=",
      "ext": {
        "flag": [
          "qiyi",
          "qq",
          "pptv",
          "sohu",
          "mgtv",
          "xigua",
          "m1905"
        ]
      }
    },
    {
      "name": "人人迷",
      "type": 0,
      "url": "https://jx.blbo.cc:4433/?url=",
      "ext": {
        "flag": [
          "renrenmi",
          "qq",
          "腾讯",
          "qiyi",
          "爱奇艺",
          "奇艺",
          "youku",
          "优酷",
          "mgtv",
          "芒果",
          "xigua",
          "西瓜",
          "letv",
          "乐视",
          "bilibili",
          "哔哩哔哩",
          "哔哩"
        ]
      }
    },
    {
      "name": "快云影音",
      "type": 1,
      "url": "https://jhjx.kuanjv.com/newky/?url=",
      "ext": {
        "flag": [
          "qq",
          "腾讯",
          "qiyi",
          "爱奇艺",
          "奇艺",
          "youku",
          "优酷",
          "bilibili",
          "哔哩哔哩",
          "哔哩",
          "letv",
          "乐视",
          "sohu"
        ]
      }
    },
    {
      "name": "嘉奖",
      "type": 1,
      "url": "http://27.124.4.42:4567/jhjson/ceshi.php?url=",
      "ext": {
        "flag": [
          "qq",
          "qiyi",
          "youku",
          "pptv",
          "le",
          "sohu",
          "bilibili",
          "xigua",
          "1905"
        ]
      }
    },
    {
      "name": "万能解析",
      "type": 0,
      "url": "https://vip.legendwhb.cn/m3u8.php?url=",
      "ext": {
        "flag": [
          "ltnb",
          "renrenmi",
          "qq",
          "腾讯",
          "qiyi",
          "爱奇艺",
          "奇艺",
          "youku",
          "优酷",
          "mgtv",
          "芒果",
          "bilibili",
          "哔哩哔哩",
          "哔哩"
        ]
      }
    },
    {
      "name": "五一",
      "type": 1,
      "url": "https://json.5lp.net/json.php?url=",
      "ext": {
        "flag": [
          "ltnb",
          "renrenmi",
          "rx",
          "rongxing"
        ]
      }
    },
    {
      "name": "盘古",
      "type": 0,
      "url": "https://www.m3u8.tv.cdn.8old.cn/jx.php?url="
    },
    {
      "name": "太空",
      "type": 1,
      "url": "http://124.222.68.182/jiexi/4kJX.php/?url=",
      "ext": {
        "flag": [
          "qq",
          "腾讯",
          "qiyi",
          "爱奇艺",
          "奇艺",
          "youku",
          "优酷",
          "sohu",
          "搜狐",
          "letv",
          "乐视",
          "mgtv",
          "芒果",
          "CL4K",
          "renrenmi",
          "ltnb",
          "bilibili",
          "1905",
          "xigua"
        ]
      }
    },
    {
      "name": "江湖2",
      "type": 1,
      "url": "http://jx.vipmv.co/?url=",
      "ext": {
        "flag": [
          "qiyi",
          "youku",
          "pptv",
          "le",
          "sohu",
          "bilibili",
          "xigua",
          "m1905"
        ]
      }
    },
    {
      "name": "虾米",
      "type": 0,
      "url": "https://jx.xmflv.com/?url=",
      "ext": {
        "flag": [
          "renrenmi",
          "qq",
          "腾讯",
          "youku",
          "优酷",
          "mgtv",
          "芒果",
          "xigua",
          "西瓜"
        ]
      }
    },
    {
      "name": "扶起",
      "type": 1,
      "url": "https://vip.fuqizhishi.com/?v="
    }
  ],
  "flags": [
    "youku",
    "qq",
    "iqiyi",
    "qiyi",
    "letv",
    "sohu",
    "tudou",
    "pptv",
    "mgtv",
    "xigua",
    "naifei",
    "wasu",
    "bilibili",
    "duoduo",
    "duoduozy",
    "xueren",
    "miaoparty",
    "miaoparty2",
    "miaoparty3",
    "leduo",
    "fq3",
    "fq4",
    "renrenmi",
    "优酷",
    "芒果",
    "腾讯",
    "爱奇艺",
    "奇艺",
    "ltnb",
    "rx",
    "RX",
    "CL4K",
    "xfyun",
    "wudu",
    "wuduzy"
  ],
  "ijk": [
    {
      "group": "软解码",
      "options": [
        {
          "category": 4,
          "name": "opensles",
          "value": "0"
        },
        {
          "category": 4,
          "name": "overlay-format",
          "value": "842225234"
        },
        {
          "category": 4,
          "name": "framedrop",
          "value": "1"
        },
        {
          "category": 4,
          "name": "soundtouch",
          "value": "1"
        },
        {
          "category": 4,
          "name": "start-on-prepared",
          "value": "1"
        },
        {
          "category": 1,
          "name": "http-detect-range-support",
          "value": "0"
        },
        {
          "category": 1,
          "name": "fflags",
          "value": "fastseek"
        },
        {
          "category": 2,
          "name": "skip_loop_filter",
          "value": "48"
        },
        {
          "category": 4,
          "name": "reconnect",
          "value": "1"
        },
        {
          "category": 4,
          "name": "enable-accurate-seek",
          "value": "0"
        },
        {
          "category": 4,
          "name": "mediacodec",
          "value": "0"
        },
        {
          "category": 4,
          "name": "mediacodec-auto-rotate",
          "value": "0"
        },
        {
          "category": 4,
          "name": "mediacodec-handle-resolution-change",
          "value": "0"
        },
        {
          "category": 4,
          "name": "mediacodec-hevc",
          "value": "0"
        },
        {
          "category": 1,
          "name": "dns_cache_timeout",
          "value": "600000000"
        }
      ]
    },
    {
      "group": "硬解码",
      "options": [
        {
          "category": 4,
          "name": "opensles",
          "value": "0"
        },
        {
          "category": 4,
          "name": "overlay-format",
          "value": "842225234"
        },
        {
          "category": 4,
          "name": "framedrop",
          "value": "1"
        },
        {
          "category": 4,
          "name": "soundtouch",
          "value": "1"
        },
        {
          "category": 4,
          "name": "start-on-prepared",
          "value": "1"
        },
        {
          "category": 1,
          "name": "http-detect-range-support",
          "value": "0"
        },
        {
          "category": 1,
          "name": "fflags",
          "value": "fastseek"
        },
        {
          "category": 2,
          "name": "skip_loop_filter",
          "value": "48"
        },
        {
          "category": 4,
          "name": "reconnect",
          "value": "1"
        },
        {
          "category": 4,
          "name": "enable-accurate-seek",
          "value": "0"
        },
        {
          "category": 4,
          "name": "mediacodec",
          "value": "1"
        },
        {
          "category": 4,
          "name": "mediacodec-auto-rotate",
          "value": "1"
        },
        {
          "category": 4,
          "name": "mediacodec-handle-resolution-change",
          "value": "1"
        },
        {
          "category": 4,
          "name": "mediacodec-hevc",
          "value": "1"
        },
        {
          "category": 1,
          "name": "dns_cache_timeout",
          "value": "600000000"
        }
      ]
    }
  ],
  "ads": [
    "mimg.0c1q0l.cn",
    "www.googletagmanager.com",
    "www.google-analytics.com",
    "mc.usihnbcq.cn",
    "mg.g1mm3d.cn",
    "mscs.svaeuzh.cn",
    "cnzz.hhttm.top",
    "tp.vinuxhome.com",
    "cnzz.mmstat.com",
    "www.baihuillq.com",
    "s23.cnzz.com",
    "z3.cnzz.com",
    "c.cnzz.com",
    "stj.v1vo.top",
    "z12.cnzz.com",
    "img.mosflower.cn",
    "tips.gamevvip.com",
    "ehwe.yhdtns.com",
    "xdn.cqqc3.com",
    "www.jixunkyy.cn",
    "sp.chemacid.cn",
    "hm.baidu.com",
    "s9.cnzz.com",
    "z6.cnzz.com",
    "um.cavuc.com",
    "mav.mavuz.com",
    "wofwk.aoidf3.com",
    "z5.cnzz.com",
    "xc.hubeijieshikj.cn",
    "tj.tianwenhu.com",
    "xg.gars57.cn",
    "k.jinxiuzhilv.com",
    "cdn.bootcss.com",
    "ppl.xunzhuo123.com",
    "xomk.jiangjunmh.top",
    "img.xunzhuo123.com",
    "z1.cnzz.com",
    "s13.cnzz.com",
    "xg.huataisangao.cn",
    "z7.cnzz.com",
    "xg.huataisangao.cn",
    "z2.cnzz.com",
    "s96.cnzz.com",
    "q11.cnzz.com",
    "thy.dacedsfa.cn",
    "xg.whsbpw.cn",
    "s19.cnzz.com",
    "z8.cnzz.com",
    "s4.cnzz.com",
    "f5w.as12df.top",
    "ae01.alicdn.com",
    "www.92424.cn",
    "k.wudejia.com",
    "vivovip.mmszxc.top",
    "qiu.xixiqiu.com",
    "cdnjs.hnfenxun.com",
    "cms.qdwght.com"
  ],
  "wallpaper": "http://www.kf666888.cn/api/tvbox/img",
  "spider": "http://刚刚.live/jar2/jar0826.jar"
}
